<?xml version="1.0" encoding="UTF-8" standalone="no"?>
<!-- Created with Inkscape (http://www.inkscape.org/) -->

<svg
   xmlns:dc="http://purl.org/dc/elements/1.1/"
   xmlns:cc="http://creativecommons.org/ns#"
   xmlns:rdf="http://www.w3.org/1999/02/22-rdf-syntax-ns#"
   xmlns:svg="http://www.w3.org/2000/svg"
   xmlns="http://www.w3.org/2000/svg"
   xmlns:sodipodi="http://sodipodi.sourceforge.net/DTD/sodipodi-0.dtd"
   xmlns:inkscape="http://www.inkscape.org/namespaces/inkscape"
   width="210mm"
   height="297mm"
   viewBox="0 0 210 297"
   version="1.1"
   id="svg8"
   inkscape:version="0.92.4 (5da689c313, 2019-01-14)"
   sodipodi:docname="takeyourheart.svg">
  <defs
     id="defs2" />
  <sodipodi:namedview
     id="base"
     pagecolor="#ffffff"
     bordercolor="#666666"
     borderopacity="1.0"
     inkscape:pageopacity="0.0"
     inkscape:pageshadow="2"
     inkscape:zoom="0.49497475"
     inkscape:cx="614.43273"
     inkscape:cy="319.119"
     inkscape:document-units="mm"
     inkscape:current-layer="layer1"
     showgrid="false"
     inkscape:window-width="901"
     inkscape:window-height="1054"
     inkscape:window-x="2923"
     inkscape:window-y="10"
     inkscape:window-maximized="1" />
  <metadata
     id="metadata5">
    <rdf:RDF>
      <cc:Work
         rdf:about="">
        <dc:format>image/svg+xml</dc:format>
        <dc:type
           rdf:resource="http://purl.org/dc/dcmitype/StillImage" />
        <dc:title />
      </cc:Work>
    </rdf:RDF>
  </metadata>
  <g
     inkscape:label="Layer 1"
     inkscape:groupmode="layer"
     id="layer1">
    <g
       id="g818">
      <path
         inkscape:connector-curvature="0"
         id="path4658"
         d="m 48.106696,209.61666 c 0.267418,-0.12784 2.710462,-0.65657 5.429005,-1.1749 l 4.942781,-0.9424 3.18e-4,-1.26577 c 3.17e-4,-1.2452 0.0115,-1.25622 0.64862,-0.67906 0.35657,0.32268 0.65051,0.89228 0.65325,1.26575 0.0101,1.43065 0.36842,1.56938 3.437761,1.33218 1.582898,-0.12238 3.388518,-0.34603 4.012491,-0.49708 0.623948,-0.15105 1.952458,-0.37157 2.952207,-0.49003 1.665251,-0.19731 1.832652,-0.15834 1.995533,0.46449 0.127688,0.4882 0.436189,0.67988 1.094438,0.67988 0.916011,0 8.25637,-1.31002 8.523099,-1.5211 0.0776,-0.0614 0.22344,-0.70894 0.32413,-1.43896 l 0.18306,-1.32733 4.294852,0.0528 4.294838,0.0526 v -0.98837 c 0,-0.77227 0.14175,-0.98836 0.64829,-0.98836 0.77094,0 0.760741,0.21992 0.306411,-6.60565 -0.188042,-2.82479 -0.278691,-5.19916 -0.201461,-5.27637 0.0772,-0.0772 0.797261,0.99662 1.60007,2.3863 1.51289,2.61888 1.553001,2.78872 2.142198,9.07055 0.12022,1.2815 0.30763,2.41908 0.41649,2.52796 0.16946,0.16946 5.742413,0.71408 9.350153,0.91374 l 1.13447,0.0628 0.21254,-3.02174 c 0.11693,-1.66197 0.27962,-3.08882 0.36158,-3.1708 0.16914,-0.16914 3.05562,0.46853 3.8147,0.84275 0.97376,0.48003 3.82026,0.69583 4.97454,0.37712 1.03363,-0.28539 1.17118,-0.25438 1.17118,0.2641 0,0.3231 0.23072,0.676 0.51272,0.78422 0.63857,0.24503 6.19092,0.20788 11.26049,-0.0753 3.17033,-0.17712 3.88654,-0.31201 4.14889,-0.78132 0.33901,-0.60647 2.46555,-0.76223 4.90385,-0.35922 l 1.21553,0.20093 v 1.75052 c 0,1.11173 0.14786,1.80022 0.40517,1.88667 0.22285,0.0749 2.73897,0.2904 5.59141,0.47893 2.85243,0.18855 6.62503,0.43746 8.38358,0.55313 l 3.19733,0.21031 -0.23558,-1.07262 -0.23558,-1.07263 1.41411,0.19408 c 0.77777,0.10673 2.03077,0.29281 2.78443,0.41348 1.27018,0.20333 1.39393,0.15725 1.69355,-0.63078 l 0.32322,-0.85015 1.83411,0.81113 1.83412,0.81114 1.58242,-0.97368 c 0.87034,-0.53551 1.6512,-0.97365 1.73527,-0.97365 0.0841,0 0.36617,0.51052 0.62687,1.13448 0.543,1.29957 0.41404,1.28018 4.99178,0.75061 l 3.35017,-0.38757 -0.134,-0.91333 c -0.1489,-1.01462 -0.19946,-1.03394 2.12339,0.81231 1.12034,0.89048 1.18922,0.90233 3.1635,0.54433 2.12618,-0.38555 2.55447,-0.21537 2.56605,1.01964 0.007,0.79139 0.7566,0.87792 7.93053,0.91585 l 6.58102,0.0349 -0.29191,-1.5504 c -2.28533,-12.13819 -2.8861,-16.08874 -2.48529,-16.34292 0.23422,-0.14851 1.19619,-0.27227 2.13773,-0.27499 1.1756,-0.003 1.7672,-0.14905 1.8884,-0.46487 0.16099,-0.41956 -0.41353,-12.20952 -0.60182,-12.34964 -0.12395,-0.0922 -22.94035,-1.47001 -24.19099,-1.46072 -1.07252,0.009 -1.09191,0.0326 -0.90979,1.15474 l 0.18607,1.14659 -3.63256,-0.21716 c -3.35448,-0.20055 -3.84891,-0.1512 -6.45852,0.64479 l -2.82594,0.86196 0.18358,2.01724 c 0.101,1.10949 0.23263,2.18142 0.29261,2.38207 0.10114,0.33852 -1.12599,1.09381 -1.77719,1.09381 -0.15749,0 -0.33296,-0.32819 -0.38993,-0.72932 -0.0968,-0.68193 -0.26076,-0.72932 -2.52263,-0.72932 h -2.41907 l -0.82233,-2.22697 -0.82234,-2.22696 -2.59311,0.17569 c -15.04403,1.0193 -14.68639,0.98217 -14.49706,1.50477 0.19045,0.52563 -0.65253,-0.0631 -2.00727,-1.40176 -0.64945,-0.64178 -1.38238,-0.6342 -8.4526,0.0872 l -1.94304,0.19829 -0.27306,1.50181 c -0.25631,1.40977 -0.34583,1.51385 -1.46041,1.69818 -0.65306,0.10803 -1.74395,0.19794 -2.42421,0.1999 -0.68026,0.001 -1.48731,0.13758 -1.79343,0.30145 -0.53883,0.28838 -0.95898,0.22706 -5.03551,-0.73474 -1.47597,-0.34825 -1.58861,-0.44669 -1.66635,-1.45639 -0.0459,-0.59561 -0.22785,-1.22739 -0.40441,-1.40395 -0.21193,-0.21192 -1.84859,-0.19343 -4.81642,0.0545 -4.25974,0.35578 -4.53356,0.42088 -5.22312,1.24186 -0.40024,0.47651 -0.73306,1.01225 -0.73962,1.19054 -0.007,0.17828 -0.22017,0.5992 -0.47471,0.9354 -0.44198,0.58377 -0.48143,0.56919 -0.8773,-0.32413 -0.22796,-0.51448 -0.576653,-1.10628 -0.774853,-1.31514 -0.41757,-0.44003 -11.421304,-0.70444 -12.090996,-0.29053 -0.292629,0.18084 -0.34815,0.71051 -0.192829,1.8397 l 0.218088,1.58573 h -3.758009 c -4.18442,0 -3.871748,0.21019 -3.76256,-2.52913 0.0839,-2.10562 -0.17421,-2.25005 -4.136828,-2.31462 -4.63042,-0.0755 -5.71422,-0.3149 -5.854729,-1.2936 l -0.109892,-0.76507 -3.678389,0.21009 c -4.040321,0.23075 -5.339911,0.56556 -5.339911,1.37571 0,0.40986 -0.101,0.45005 -0.43493,0.17296 -0.43643,-0.36221 -8.562781,-1.20123 -8.850241,-0.91376 -0.0844,0.0844 -0.21385,0.63199 -0.2879,1.2171 -0.074,0.58512 -0.273245,1.20243 -0.442633,1.37184 -0.169403,0.1694 -1.741129,0.42947 -3.492731,0.57793 -1.751616,0.14847 -3.622322,0.34549 -4.157158,0.43782 -0.534836,0.0924 -2.410333,0.26735 -4.167774,0.38891 l -3.195357,0.22103 0.209271,1.65071 c 0.115059,0.9079 0.336138,2.08831 0.491223,2.62313 0.1551,0.53484 0.529843,2.13933 0.832783,3.56554 0.945144,4.44974 0.765426,4.1774 2.966144,4.49495 l 1.948406,0.28111 0.372176,2.96028 c 0.204695,1.62814 0.530848,5.36699 0.724783,8.30856 0.193935,2.94156 0.414196,5.54119 0.489487,5.77694 0.104011,0.32564 0.585048,0.37428 2.001832,0.20247 1.025743,-0.12437 2.083765,-0.33079 2.351183,-0.45866 z"
         style="fill:#000000;fill-opacity:1;stroke-width:0.32413936" />
      <path
         sodipodi:nodetypes="ccccccccccscccccsssccccccscccscccccscssccccccccccsccccssccccccccccccscccscscccsccscccccccsccccccsccssssccscccsccscccccccccccccsccccscccscccccccsscccccccsssccsscscccccccscccccccscccsccsscccccccscsccssccccccccscccccccccsccscccccscccscccssccsccccccscccsccccccccccccssccsccccccscscssssccsccscccccscccccscccccsccscsccsscccssccscccsccsccccccscscccscccsscsscccccccccssscccsccccscsssssccscccccccccccccccsscsssssccsccss"
         inkscape:connector-curvature="0"
         id="path3778"
         d="m 48.106695,209.61666 c 0.267418,-0.12783 2.710462,-0.65657 5.429005,-1.17489 l 4.94278,-0.94241 3.1e-4,-1.26576 c 3.3e-4,-1.24521 0.0115,-1.25623 0.64862,-0.67907 0.35657,0.32268 0.65051,0.89228 0.65325,1.26576 0.0101,1.43064 0.36842,1.56937 3.43776,1.33217 1.5829,-0.12238 3.38852,-0.34603 4.01249,-0.49708 0.62395,-0.15105 1.95246,-0.37157 2.95221,-0.49003 1.66525,-0.19731 1.83265,-0.15834 1.99553,0.46449 0.12769,0.48821 0.43619,0.67988 1.09444,0.67988 0.91601,0 8.25637,-1.31002 8.5231,-1.5211 0.0776,-0.0614 0.22344,-0.70894 0.32413,-1.43896 l 0.18306,-1.32732 4.29485,0.0528 4.29484,0.0526 v -0.98837 c 0,-0.77227 0.14175,-0.98836 0.64829,-0.98836 0.77094,0 0.76074,0.21992 0.30641,-6.60565 -0.18804,-2.82479 -0.27869,-5.19916 -0.20146,-5.27637 0.0772,-0.0772 0.79726,0.99662 1.60007,2.3863 1.51289,2.61888 1.553,2.78872 2.1422,9.07055 0.12022,1.2815 0.30763,2.41908 0.41649,2.52796 0.16946,0.16946 5.7424,0.71408 9.35015,0.91374 l 1.13446,0.0628 0.21254,-3.02175 c 0.11693,-1.66197 0.27962,-3.08881 0.36158,-3.17079 0.16914,-0.16914 3.05564,0.46853 3.81472,0.84274 0.97376,0.48004 3.82025,0.69584 4.97453,0.37713 1.03363,-0.28539 1.17118,-0.25439 1.17118,0.26409 0,0.32311 0.23072,0.676 0.51272,0.78422 0.63857,0.24504 6.19092,0.20788 11.26049,-0.0753 3.17033,-0.17712 3.88654,-0.31201 4.14889,-0.78132 0.33901,-0.60647 2.46555,-0.76223 4.90385,-0.35921 l 1.21553,0.20092 v 1.75053 c 0,1.11172 0.14786,1.80021 0.40517,1.88666 0.22285,0.0749 2.73897,0.2904 5.59141,0.47894 2.85243,0.18854 6.62503,0.43745 8.38358,0.55313 l 3.19733,0.2103 -0.23558,-1.07262 -0.23558,-1.07263 1.41411,0.19408 c 0.77777,0.10674 2.03077,0.29281 2.78443,0.41348 1.27018,0.20333 1.39393,0.15725 1.69355,-0.63077 l 0.32322,-0.85016 1.83411,0.81113 1.83412,0.81114 1.58242,-0.97367 c 0.87034,-0.53552 1.6512,-0.97366 1.73527,-0.97366 0.0841,0 0.36617,0.51052 0.62687,1.13449 0.543,1.29957 0.41404,1.28017 4.99178,0.7506 l 3.35017,-0.38757 -0.134,-0.91333 c -0.1489,-1.01461 -0.19946,-1.03394 2.12339,0.81231 1.12034,0.89048 1.18922,0.90233 3.1635,0.54433 2.12618,-0.38555 2.55447,-0.21537 2.56605,1.01964 0.007,0.7914 0.7566,0.87792 7.93053,0.91585 l 6.58102,0.0349 -0.29191,-1.5504 c -2.28533,-12.13819 -2.8861,-16.08874 -2.48529,-16.34292 0.23422,-0.14851 1.19619,-0.27227 2.13773,-0.27499 1.1756,-0.003 1.7672,-0.14905 1.8884,-0.46487 0.161,-0.41956 -0.41352,-12.20952 -0.60181,-12.34964 -0.12395,-0.0922 -22.94035,-1.47001 -24.19099,-1.46072 -1.07252,0.009 -1.09191,0.0326 -0.90979,1.15474 l 0.18607,1.14659 -3.63256,-0.21716 c -3.35448,-0.20055 -3.84891,-0.1512 -6.45852,0.64479 l -2.82594,0.86196 0.18358,2.01724 c 0.101,1.10949 0.23263,2.18142 0.29261,2.38207 0.10114,0.33852 -1.12599,1.09381 -1.77719,1.09381 -0.15749,0 -0.33296,-0.32819 -0.38993,-0.72932 -0.0968,-0.68193 -0.26076,-0.72932 -2.52263,-0.72932 h -2.41907 l -0.82233,-2.22697 -0.82234,-2.22696 -2.59311,0.17569 c -15.04403,1.0193 -14.68639,0.98217 -14.49706,1.50477 0.19045,0.52563 -0.65253,-0.0631 -2.00727,-1.40176 -0.64945,-0.64178 -1.38238,-0.6342 -8.4526,0.0872 l -1.94304,0.19829 -0.27306,1.50181 c -0.25631,1.40977 -0.34583,1.51385 -1.46041,1.69818 -0.65306,0.10803 -1.74395,0.19794 -2.42421,0.1999 -0.68026,0.001 -1.48731,0.13758 -1.79343,0.30145 -0.53883,0.28838 -0.95898,0.22706 -5.03551,-0.73474 -1.47597,-0.34825 -1.58861,-0.44669 -1.66635,-1.45639 -0.0459,-0.59561 -0.22784,-1.22739 -0.4044,-1.40395 -0.21193,-0.21192 -1.84859,-0.19343 -4.81642,0.0545 -4.25975,0.35578 -4.53356,0.42088 -5.22312,1.24186 -0.40024,0.47651 -0.73306,1.01225 -0.73962,1.19054 -0.007,0.17828 -0.22017,0.5992 -0.47471,0.9354 -0.44198,0.58377 -0.48143,0.56919 -0.8773,-0.32413 -0.22796,-0.51448 -0.57666,-1.10628 -0.77486,-1.31514 -0.41758,-0.44003 -11.42131,-0.70444 -12.091,-0.29053 -0.29263,0.18084 -0.34815,0.71051 -0.19283,1.8397 l 0.21809,1.58573 h -3.75801 c -4.18442,0 -3.87175,0.21019 -3.76256,-2.52913 0.0839,-2.10562 -0.17421,-2.25005 -4.13683,-2.31462 -4.63042,-0.0755 -5.71422,-0.3149 -5.85473,-1.2936 l -0.10989,-0.76507 -3.67839,0.21009 c -4.04032,0.23075 -5.33991,0.56556 -5.33991,1.37571 0,0.40986 -0.101,0.45005 -0.43493,0.17296 -0.43643,-0.36221 -8.56278,-1.20123 -8.85024,-0.91376 -0.0844,0.0844 -0.21385,0.63199 -0.2879,1.2171 -0.074,0.58512 -0.273245,1.20243 -0.442633,1.37184 -0.169403,0.1694 -1.741129,0.42947 -3.492731,0.57793 -1.751616,0.14847 -3.622322,0.34549 -4.157158,0.43782 -0.534836,0.0924 -2.410333,0.26735 -4.167774,0.38891 l -3.195357,0.22103 0.209271,1.65071 c 0.115059,0.9079 0.336138,2.08831 0.491223,2.62313 0.1551,0.53484 0.529843,2.13933 0.832783,3.56554 0.945144,4.44974 0.765426,4.1774 2.966144,4.49495 l 1.948406,0.28111 0.372176,2.96028 c 0.204695,1.62814 0.530848,5.36699 0.724783,8.30856 0.193935,2.94156 0.414196,5.54119 0.489487,5.77695 0.104011,0.32563 0.585048,0.37428 2.001832,0.20247 1.025743,-0.12438 2.083765,-0.3308 2.351183,-0.45867 z m -1.086442,-5.60179 c -0.102434,-0.5794 -0.418673,-3.31434 -0.702833,-6.07761 -0.284175,-2.7633 -0.617744,-5.82641 -0.741296,-6.80693 l -0.224622,-1.78276 -1.782763,-0.16207 -1.782762,-0.16208 -0.426219,-3.03127 c -0.234406,-1.6672 -0.350541,-3.10694 -0.258064,-3.19942 0.485929,-0.48591 11.070816,-1.63712 11.950166,-1.29967 0.37898,0.14541 0.58438,0.83017 0.74843,2.49499 0.23542,2.38913 0.7892,3.46497 0.7892,1.53322 0,-1.96126 0.63788,-4.58833 1.21906,-5.02057 0.33476,-0.24897 1.22194,-0.38061 2.1844,-0.32415 l 1.62069,0.0951 0.56422,1.76152 c 0.31033,0.96883 0.94035,3.59436 1.40007,5.83451 0.98138,4.78228 2.93792,11.70852 3.43915,12.1747 0.25014,0.23268 0.28736,-0.32322 0.13012,-1.94306 -0.12123,-1.24793 -0.434,-4.60278 -0.69512,-7.45521 -0.26113,-2.85242 -0.56728,-6.18486 -0.68035,-7.4054 -0.24452,-2.63982 -0.10559,-2.79287 2.54135,-2.80002 2.85646,-0.007 2.86207,-0.001 2.86715,3.028 0.004,2.64839 0.21777,4.1022 0.60063,4.09335 0.11291,-0.003 0.77161,-1.42476 1.46375,-3.16036 0.69215,-1.73559 1.40286,-3.33794 1.57935,-3.56079 0.36464,-0.4604 3.09041,-0.54119 3.76854,-0.11175 0.36506,0.23122 0.14074,1.21728 -1.21553,5.34322 -0.91476,2.78282 -1.6632,5.47145 -1.6632,5.97471 0,1.04959 2.72978,6.86453 3.2225,6.86453 0.36641,0 0.11549,-1.74068 -0.39384,-2.73305 -0.48692,-0.94856 -1.18341,-4.08849 -1.19642,-5.39373 -0.006,-0.63676 0.21848,-1.83288 0.49964,-2.65802 0.58422,-1.7146 0.12812,-1.57531 7.10609,-2.17 5.26249,-0.4485 5.59103,-0.40318 5.79653,0.79958 0.53421,3.12684 1.27354,12.83199 0.99842,13.10638 -0.2666,0.2659 -4.78938,0.97207 -9.83149,1.53507 -1.41207,0.15767 -1.41538,0.1611 -1.2339,1.27933 l 0.18194,1.12125 -2.78327,-0.0934 -2.78327,-0.0934 -1.0572,-2.74491 c -1.44333,-3.74747 -1.84738,-3.76094 -1.73014,-0.0577 0.0512,1.61842 0.0274,3.00716 -0.0529,3.08611 -0.0803,0.0789 -2.03923,0.18872 -4.35306,0.24397 l -4.20695,0.10043 -0.49308,-1.39373 c -0.61273,-1.73199 -1.02954,-1.96204 -3.1715,-1.75046 -1.52389,0.15053 -1.72411,0.25921 -1.87574,1.01824 -0.47429,2.37438 -0.5515,2.46448 -2.20304,2.57026 -0.8646,0.0554 -1.76229,-0.0691 -2.01589,-0.27962 -0.35842,-0.29746 -0.50053,-0.2665 -0.65779,0.14333 -0.15505,0.40409 -0.662629,0.52271 -2.236722,0.52271 h -2.036164 z m 5.119087,-2.91725 c 0.0855,-0.40113 0.46427,-2.69847 0.84185,-5.1052 0.3776,-2.40674 0.8206,-5.16636 0.98448,-6.1325 0.16387,-0.96613 0.26188,-1.7865 0.21778,-1.82306 -0.17049,-0.14131 -3.485728,0.3944 -3.687109,0.59577 -0.19613,0.19613 0.285782,7.65316 0.745329,11.53325 0.20557,1.73583 0.63213,2.17856 0.89767,0.93174 z m 35.10718,-1.18306 c 0.48333,-0.0387 0.55036,-2.54246 0.0877,-3.27386 -0.24616,-0.38912 -0.38005,-0.27846 -0.67041,0.55401 -0.37074,1.06294 -0.58803,1.19088 -2.59335,1.52703 -1.85573,0.31108 -2.40567,-0.32328 -2.41091,-2.78102 l -0.004,-2.05521 1.43378,-0.10243 c 1.04263,-0.0745 1.51127,0.036 1.71783,0.40518 0.48619,0.86875 1.22427,0.60125 1.22427,-0.44373 0,-2.22069 -1.20347,-3.41912 -1.62456,-1.61777 -0.14531,0.62162 -0.41876,0.80404 -1.30549,0.87092 -1.55307,0.11707 -1.95486,-0.24507 -2.29592,-2.06972 -0.36329,-1.94356 0.075,-2.39077 2.34364,-2.39077 1.29675,0 1.63175,0.13673 2.18393,0.89139 0.57337,0.78362 0.6789,0.82251 0.873,0.32171 0.12137,-0.31334 0.12782,-1.06513 0.0143,-1.67066 l -0.20653,-1.10096 -3.31357,0.14692 c -1.82247,0.0808 -3.78718,0.21921 -4.36601,0.30756 l -1.05245,0.16062 0.64268,0.87688 c 0.41641,0.56818 0.87251,2.22907 1.29554,4.71775 0.74886,4.40552 0.80781,5.76081 0.27379,6.29482 -0.82997,0.82997 1.30168,0.94856 7.75326,0.43133 z m -28.48534,-4.43351 c 0.1856,-0.16508 -0.25518,-2.18634 -0.59332,-2.72063 -0.43089,-0.68093 -0.58844,-0.38895 -0.84867,1.57278 -0.22788,1.71778 -0.22324,1.73046 0.54611,1.49353 0.42676,-0.13142 0.8299,-0.28699 0.89588,-0.34568 z m 39.74134,6.60438 c -0.096,-0.25029 -0.2875,-2.36638 -0.42546,-4.7024 -0.22271,-3.77139 -0.34314,-4.3869 -1.07465,-5.49311 -0.45309,-0.68519 -1.3596,-2.22126 -2.01443,-3.4135 -0.65484,-1.19223 -1.83882,-3.15447 -2.63108,-4.36053 -0.79227,-1.20606 -1.37895,-2.25436 -1.30376,-2.32955 0.0752,-0.0752 1.55155,-0.1933 3.2808,-0.26245 2.60076,-0.10402 3.24732,-0.0323 3.7413,0.41469 0.32846,0.29726 0.59858,0.70018 0.60028,0.8954 10e-4,0.19521 0.59418,1.28671 1.31662,2.42557 1.54631,2.43754 1.53776,2.44096 3.38032,-1.34876 l 1.29654,-2.66672 2.59313,-0.17505 c 1.42622,-0.0963 2.64451,-0.14218 2.70732,-0.10186 0.0628,0.0402 -0.21779,0.73789 -0.62356,1.55036 -0.40576,0.81247 -0.66774,1.54721 -0.58218,1.63277 0.0857,0.0857 0.72323,-0.001 1.41704,-0.19273 1.93794,-0.53509 5.36358,-0.23633 6.46161,0.56354 0.79059,0.5759 1.13923,0.63009 2.48274,0.3859 0.85964,-0.15625 2.91803,-0.24207 4.57419,-0.19071 l 3.0112,0.0934 0.4613,2.51208 c 0.25369,1.38164 0.58189,2.51208 0.7293,2.51208 0.36535,0 0.3348,-3.2969 -0.0524,-5.66177 -0.17419,-1.06379 -0.1971,-2.0538 -0.0509,-2.19999 0.47737,-0.47736 5.76715,-0.69198 6.7742,-0.27485 1.99985,0.82837 2.66824,3.61553 1.37057,5.7152 l -0.71905,1.16346 0.74723,0.79541 c 0.58376,0.62138 0.84108,1.47947 1.17604,3.92202 0.23582,1.71963 0.5803,3.30916 0.76548,3.53231 0.41721,0.50271 0.17252,0.65434 -1.50302,0.93134 -1.7315,0.28626 -1.98324,-0.0519 -2.41827,-3.24877 -0.52519,-3.85935 -0.57827,-4.02607 -1.28192,-4.02607 -0.54104,0 -0.60343,0.15285 -0.42551,1.04247 0.11463,0.57337 0.22042,2.28286 0.235,3.79888 l 0.0265,2.75639 -1.28384,0.21294 c -0.75143,0.12467 -1.51906,0.0661 -1.85103,-0.14131 -0.41859,-0.26141 -1.52397,-0.21404 -4.21884,0.18081 -2.26018,0.33116 -3.78895,0.42107 -4.01201,0.23595 -0.1982,-0.16449 -0.6195,-1.21247 -0.93621,-2.32883 -0.3167,-1.11637 -0.64318,-2.24855 -0.72551,-2.51596 -0.0968,-0.31464 -0.37268,-0.0287 -0.78158,0.81036 -0.79402,1.62928 -1.64477,2.29312 -3.6945,2.88284 -2.0243,0.58243 -4.16742,0.2855 -5.60368,-0.77637 -1.43286,-1.05934 -2.6619,-3.62393 -2.6619,-5.55446 0,-0.84585 -0.13414,-1.62083 -0.29813,-1.72218 -0.16398,-0.10128 -0.76131,0.65582 -1.32741,1.6826 l -1.02927,1.86686 0.16193,4.44492 c 0.18527,5.08621 0.49376,4.61614 -3.25822,4.96453 -1.86503,0.17316 -2.38354,0.12439 -2.52229,-0.23712 z m 27.97896,-7.36471 c 0.85344,-0.89364 0.97384,-1.17024 0.60038,-1.37924 -0.37847,-0.21181 -0.95184,-3.36334 -0.91771,-5.0441 0.0115,-0.59805 -0.7528,-1.05672 -1.76232,-1.05672 -1.17397,0 -1.38865,0.4346 -0.62921,1.27378 0.26384,0.29153 0.56283,1.58729 0.68994,2.99012 0.20828,2.2984 0.17593,2.50153 -0.45199,2.83758 -0.91441,0.48939 -1.26055,-0.20195 -1.5438,-3.08357 -0.2962,-3.01318 -0.51712,-3.36964 -2.0884,-3.36964 -0.92627,0 -1.28514,0.13572 -1.28514,0.48622 0,0.2674 0.20319,0.4862 0.45152,0.4862 0.59314,0 0.72761,0.40509 1.20112,3.61811 0.21905,1.48643 0.544,2.892 0.72208,3.12348 0.21421,0.2784 0.9369,0.38952 2.13491,0.32823 1.58368,-0.0811 1.94511,-0.23299 2.87862,-1.21045 z m -12.07633,-1.22066 c 0.23938,-0.48217 0.26225,-1.57297 0.0713,-3.40346 -0.30688,-2.9425 -0.82996,-3.90692 -1.79112,-3.30233 -0.4528,0.28481 -0.57915,0.92503 -0.65434,3.31555 -0.0544,1.72977 0.0558,3.2411 0.26504,3.63191 0.45727,0.85443 1.63166,0.71986 2.10906,-0.24167 z m 18.56443,-7.76513 c -0.13759,-2.1597 -0.48487,-2.85117 -1.27915,-2.54638 -0.40887,0.15689 -0.42157,0.51607 -0.0891,2.52269 0.2132,1.28688 0.40335,2.37166 0.42256,2.41062 0.0192,0.039 0.26934,-0.0191 0.55584,-0.12897 0.42316,-0.16239 0.49632,-0.58608 0.38987,-2.2579 z m 55.90166,16.15655 c -0.42879,-0.27591 -0.82367,-2.01914 -3.31874,-14.65082 l -0.54421,-2.75519 h -2.05442 -2.05439 l 0.0713,2.44399 c 0.0597,2.04476 -0.0377,2.5826 -0.5961,3.29252 -0.36709,0.46669 -0.66745,1.02524 -0.66745,1.24122 0,0.7068 2.35616,4.2904 3.64012,5.53645 0.82722,0.80279 1.31975,1.61315 1.44333,2.37468 0.18698,1.1522 0.18358,1.15604 -1.02134,1.15604 -2.40226,0 -4.04548,-1.31274 -5.68039,-4.53795 -1.4195,-2.80022 -2.59796,-4.25921 -3.35336,-4.15158 -0.46618,0.0664 -0.68947,0.31685 -0.66696,0.74812 0.029,0.55603 0.73781,4.21509 1.27144,6.56382 0.15967,0.70279 0.0829,0.7293 -2.10945,0.7293 -2.21074,0 -2.27516,-0.023 -2.27516,-0.81034 0,-0.90341 -0.50709,-1.03135 -1.46754,-0.37026 -1.26446,0.87035 -3.08552,1.25341 -4.88803,1.02822 -1.4464,-0.18073 -1.96674,-0.42921 -2.89042,-1.38028 -0.99227,-1.02171 -1.12647,-1.36037 -1.12647,-2.84269 0,-2.04928 0.44348,-2.52842 3.2961,-3.56134 2.27387,-0.82334 2.89785,-1.45003 2.23683,-2.24652 -0.57861,-0.69717 -1.8957,-0.6453 -3.42602,0.13486 -0.69936,0.35655 -1.38659,0.64828 -1.52715,0.64828 -0.35135,0 -0.32184,-1.72846 0.0461,-2.69594 0.52545,-1.38206 4.60841,-2.35959 6.23023,-1.49161 0.36011,0.19271 0.74342,0.26172 0.85181,0.15332 0.10846,-0.10846 -0.12281,-1.41708 -0.51396,-2.90816 -1.10563,-4.2155 -1.09002,-4.27054 1.28134,-4.51839 4.8224,-0.50403 6.96436,-0.11692 9.00129,1.62658 0.69553,0.59533 1.35811,1.08244 1.47241,1.08244 0.11434,0 0.16404,-0.69285 0.11061,-1.53967 l -0.0973,-1.53966 7.87378,-0.0868 c 4.33059,-0.0478 8.33459,0.0326 8.89779,0.17851 0.96474,0.24999 1.04772,0.39385 1.43387,2.48614 0.22544,1.22144 0.33344,2.34447 0.24003,2.49564 -0.0934,0.15115 -0.78518,0.27483 -1.53724,0.27483 -0.75205,0 -1.69155,0.22706 -2.08777,0.50458 -0.97936,0.68596 -0.93976,1.90578 0.29398,9.05752 1.39275,8.0735 1.36533,7.83471 0.93022,8.10364 -0.55201,0.34116 -6.24233,0.53297 -6.71865,0.22647 z m -22.46184,-5.57492 c 0.49174,0 0.64031,-0.97735 0.27158,-1.78661 -0.42952,-0.94269 -0.62004,-0.97398 -1.90021,-0.31198 -1.15448,0.59702 -1.27096,1.66874 -0.227,2.08876 0.40113,0.16138 0.92357,0.22962 1.161,0.15163 0.23742,-0.0781 0.55,-0.14174 0.69463,-0.14174 z m 8.93476,-9.20721 c 0.59839,-0.43757 0.60103,-0.50122 0.0671,-1.62071 -0.50547,-1.05996 -0.67671,-1.16524 -1.89528,-1.16524 -1.23103,0 -1.32377,0.0591 -1.14416,0.72931 0.10745,0.40113 0.19745,0.98928 0.19987,1.30701 0.003,0.31773 0.33262,0.7096 0.73374,0.87084 1.02941,0.41377 1.33156,0.39579 2.03863,-0.12123 z m -29.67151,13.76415 -3.07933,-0.18106 -0.0911,-4.19281 c -0.0501,-2.30605 -0.23867,-4.37053 -0.41894,-4.58775 -0.4642,-0.55932 -0.34762,-9.78992 0.12739,-10.08346 0.20084,-0.1241 1.02549,-0.25347 1.83258,-0.28746 0.80709,-0.034 2.19674,-0.2126 3.08813,-0.39691 0.89139,-0.18431 2.49587,-0.37509 3.56554,-0.42395 l 1.94483,-0.0888 0.26762,1.4409 c 0.14719,0.79249 0.3228,1.73262 0.39022,2.08916 0.11334,0.59913 0.33884,0.64077 2.97378,0.54908 3.36932,-0.11721 4.01236,0.18989 3.75671,1.79424 -0.15822,0.99284 -0.20207,1.02206 -0.85141,0.56725 -1.04299,-0.73054 -2.1217,-0.61317 -2.29593,0.2498 -0.29571,1.46466 -0.42312,3.00811 -0.28094,3.40347 0.23177,0.64444 1.06411,0.46925 1.06411,-0.22398 0,-0.74455 0.58056,-1.18893 1.0023,-0.76719 0.46561,0.46563 -0.036,4.31359 -0.56227,4.31359 -0.24202,0 -0.44003,-0.14586 -0.44003,-0.32414 0,-0.17827 -0.2188,-0.32413 -0.4862,-0.32413 -0.38257,0 -0.48622,0.45132 -0.48622,2.11707 0,2.42193 0.35076,2.77848 1.94898,1.98118 0.90485,-0.4514 1.02012,-0.45062 1.19611,0.009 0.10717,0.27915 0.0592,0.8916 -0.10616,1.361 -0.29098,0.82512 -0.39146,0.85489 -3.02645,0.89686 -2.45872,0.0392 -2.75031,0.11046 -2.97921,0.72931 -0.27838,0.7525 -1.08403,0.79059 -8.05399,0.38076 z m 1.94484,-2.596 c 0,-0.16941 -0.24779,-0.4467 -0.55064,-0.61619 -0.85989,-0.48121 -0.83303,-6.18517 0.0337,-7.14422 0.6938,-0.76775 1.56728,-0.88516 2.06925,-0.27815 0.18428,0.22286 0.36213,1.71795 0.39523,3.32243 0.0826,4.00728 0.0875,3.97947 -0.72662,4.23785 l -0.72399,0.22977 0.71857,0.26582 c 0.90341,0.3342 3.97054,0.22235 3.97068,-0.1448 7e-5,-0.1504 -0.27651,-0.3458 -0.61463,-0.43421 -0.54251,-0.14189 -0.63642,-0.58577 -0.7993,-3.77829 -0.10157,-1.98963 -0.183,-3.90643 -0.18109,-4.25954 0.007,-1.37154 -2.12896,-1.93391 -3.55424,-0.93561 -1.0963,0.76788 -1.36874,0.14494 -1.27167,-2.90756 0.0977,-3.0702 -0.31233,-3.55138 -1.94033,-2.27729 -1.19503,0.93526 -1.32321,1.41417 -0.3785,1.41417 0.64375,0 0.65799,0.151 0.57258,6.07227 -0.0765,5.29911 -0.16048,6.14519 -0.66015,6.64486 -0.31492,0.31492 -0.57258,0.64551 -0.57258,0.73465 0,0.0891 0.9481,0.16208 2.1069,0.16208 1.1588,0 2.10691,-0.13859 2.10691,-0.30804 z m -50.85661,-3.33853 c -0.15116,-0.40113 -0.37901,-1.23984 -0.50633,-1.86381 -0.21437,-1.05044 -0.19655,-1.08647 0.24056,-0.4862 0.40901,0.56167 0.93685,3.07931 0.64559,3.07931 -0.0578,0 -0.22867,-0.32819 -0.37982,-0.7293 z"
         style="fill:#ffffff;fill-opacity:1;stroke-width:0.32413936" />
      <path
         sodipodi:nodetypes="ccccccscsccssccccccccsccccccscscssssccscscccccccsscsssssccsccs"
         inkscape:connector-curvature="0"
         id="path3778-6"
         d="m 87.246523,199.91457 c 0.483327,-0.0387 0.550359,-2.54247 0.0877,-3.27387 -0.24616,-0.38912 -0.38005,-0.27846 -0.670409,0.55401 -0.370739,1.06294 -0.588031,1.19088 -2.59335,1.52703 -1.85573,0.31108 -2.405671,-0.32328 -2.41091,-2.78102 l -0.004,-2.05521 1.433779,-0.10243 c 1.042631,-0.0745 1.511271,0.036 1.717832,0.40518 0.48619,0.86875 1.224269,0.60125 1.224269,-0.44373 0,-2.22069 -1.203471,-3.41912 -1.62456,-1.61777 -0.145309,0.62162 -0.418759,0.80404 -1.305491,0.87092 -1.55307,0.11707 -1.954859,-0.24507 -2.29592,-2.06972 -0.363288,-1.94356 0.075,-2.39077 2.34364,-2.39077 1.296752,0 1.631751,0.13673 2.183931,0.89139 0.573371,0.78362 0.6789,0.82251 0.873001,0.32171 0.12137,-0.31334 0.127818,-1.06513 0.01429,-1.67066 l -0.206529,-1.10096 -3.31357,0.14692 c -1.822471,0.0808 -3.78718,0.21921 -4.366011,0.30756 l -1.052449,0.16062 0.642678,0.87688 c 0.416412,0.56818 0.872511,2.22907 1.29554,4.71775 0.748861,4.40552 0.80781,5.76081 0.273791,6.29482 -0.829969,0.82997 1.301681,0.94856 7.75326,0.43133 z m 39.234957,-5.19385 c 0.85344,-0.89364 0.97384,-1.17024 0.60038,-1.37924 -0.37847,-0.21181 -0.95184,-3.36334 -0.91771,-5.0441 0.0115,-0.59805 -0.7528,-1.05672 -1.76232,-1.05672 -1.17397,0 -1.38865,0.4346 -0.62921,1.27378 0.26384,0.29153 0.56283,1.58729 0.68994,2.99012 0.20828,2.2984 0.17593,2.50153 -0.45199,2.83758 -0.91441,0.48939 -1.26055,-0.20195 -1.5438,-3.08357 -0.2962,-3.01318 -0.51712,-3.36964 -2.0884,-3.36964 -0.92627,0 -1.28514,0.13572 -1.28514,0.48622 0,0.2674 0.20319,0.4862 0.45152,0.4862 0.59314,0 0.72761,0.40509 1.20112,3.61811 0.21905,1.48643 0.544,2.892 0.72208,3.12348 0.21421,0.2784 0.9369,0.38952 2.13491,0.32823 1.58368,-0.0811 1.94511,-0.23299 2.87862,-1.21045 z m 21.13601,3.55678 c 0,-0.16941 -0.24779,-0.4467 -0.55064,-0.61619 -0.85989,-0.48121 -0.83303,-6.18517 0.0337,-7.14422 0.6938,-0.76775 1.56728,-0.88516 2.06925,-0.27815 0.18428,0.22286 0.36213,1.71795 0.39523,3.32243 0.0826,4.00728 0.0875,3.97947 -0.72662,4.23785 l -0.72399,0.22977 0.71857,0.26582 c 0.90341,0.3342 3.97054,0.22235 3.97068,-0.1448 7e-5,-0.1504 -0.27651,-0.3458 -0.61463,-0.43421 -0.54251,-0.14189 -0.63642,-0.58577 -0.7993,-3.77829 -0.10157,-1.98963 -0.183,-3.90643 -0.18109,-4.25954 0.007,-1.37154 -2.12896,-1.93391 -3.55424,-0.93561 -1.0963,0.76788 -1.36874,0.14494 -1.27167,-2.90756 0.0977,-3.0702 -0.31233,-3.55138 -1.94033,-2.27729 -1.19503,0.93526 -1.32321,1.41417 -0.3785,1.41417 0.64375,0 0.65799,0.151 0.57258,6.07227 -0.0765,5.29911 -0.16048,6.14519 -0.66015,6.64486 -0.31492,0.31492 -0.57258,0.64551 -0.57258,0.73465 0,0.0891 0.9481,0.16208 2.1069,0.16208 1.1588,0 2.10691,-0.13859 2.10691,-0.30804 z"
         style="fill:#ff0000;fill-opacity:1;stroke-width:0.32413936" />
    </g>
  </g>
</svg>
