<?xml version="1.0" encoding="UTF-8" standalone="no"?>
<!-- Created with Inkscape (http://www.inkscape.org/) -->

<svg
   xmlns:dc="http://purl.org/dc/elements/1.1/"
   xmlns:cc="http://creativecommons.org/ns#"
   xmlns:rdf="http://www.w3.org/1999/02/22-rdf-syntax-ns#"
   xmlns:svg="http://www.w3.org/2000/svg"
   xmlns="http://www.w3.org/2000/svg"
   xmlns:sodipodi="http://sodipodi.sourceforge.net/DTD/sodipodi-0.dtd"
   xmlns:inkscape="http://www.inkscape.org/namespaces/inkscape"
   version="1.1"
   id="svg10"
   width="2484"
   height="5376"
   viewBox="0 0 2484 5376"
   sodipodi:docname="wallpaper-18:9-mobile.svg"
   inkscape:version="0.92.4 (5da689c313, 2019-01-14)"
   inkscape:export-filename="/home/nathan/projects/Inkscape/phantom-thieves-logo-wallpaper/wallpapers/png/wallpaper-18:9-mobile.png"
   inkscape:export-xdpi="96"
   inkscape:export-ydpi="96">
  <metadata
     id="metadata16">
    <rdf:RDF>
      <cc:Work
         rdf:about="">
        <dc:format>image/svg+xml</dc:format>
        <dc:type
           rdf:resource="http://purl.org/dc/dcmitype/StillImage" />
        <dc:title />
      </cc:Work>
    </rdf:RDF>
  </metadata>
  <defs
     id="defs14">
    <filter
       id="filter4574"
       style="color-interpolation-filters:sRGB;"
       inkscape:menu-tooltip="Low, sharp bevel"
       inkscape:menu="Bevels"
       inkscape:label="Jigsaw Piece">
      <feSpecularLighting
         id="feSpecularLighting4566"
         specularExponent="13.9"
         specularConstant="0"
         surfaceScale="-3.8799999999999999"
         in="SourceAlpha">
        <feDistantLight
           id="feDistantLight4564"
           azimuth="0"
           elevation="0" />
      </feSpecularLighting>
      <feComposite
         id="feComposite4568"
         in2="SourceGraphic"
         operator="atop"
         result="result0" />
      <feMorphology
         id="feMorphology4570"
         operator="dilate"
         in="SourceAlpha"
         result="result1"
         radius="1" />
      <feComposite
         id="feComposite4572"
         in2="result1"
         in="result0" />
    </filter>
  </defs>
  <sodipodi:namedview
     pagecolor="#000000"
     bordercolor="#666666"
     borderopacity="1"
     objecttolerance="10"
     gridtolerance="10"
     guidetolerance="10"
     inkscape:pageopacity="1"
     inkscape:pageshadow="2"
     inkscape:window-width="901"
     inkscape:window-height="1054"
     id="namedview12"
     showgrid="false"
     inkscape:zoom="0.22627416"
     inkscape:cx="1144.4471"
     inkscape:cy="2290.8048"
     inkscape:window-x="1003"
     inkscape:window-y="10"
     inkscape:window-maximized="1"
     inkscape:current-layer="g818"
     inkscape:pagecheckerboard="false" />
  <g
     id="g4902"
     transform="translate(0.16577255,-309.12298)">
    <path
       id="path4813"
       d="m 1270.496,1867.3057 c -163.7503,-0.084 -383.16206,59.3487 -552.14369,149.5625 -68.88642,36.7763 -119.55703,73.7045 -173.25466,126.2651 -80.77169,79.0615 -113.77253,127.0393 -129.35294,188.0618 -3.50185,13.7154 -7.83768,42.6841 -7.8922,52.727 l -0.0321,5.7908 11.83516,1.0742 c 31.3191,2.838 53.87885,14.1323 91.73359,45.9279 74.29172,62.4 178.00541,190.6596 237.88578,294.183 9.9283,17.1647 26.64283,51.1595 28.19564,57.3465 1.97886,7.8843 -3.34933,5.0407 -10.55731,-5.6341 l -6.76783,-10.0218 1.04289,7.9799 c 1.63524,12.5327 9.23725,26.8334 20.12811,37.8604 10.99782,11.1353 10.5069,9.8634 24.08986,62.4889 8.85364,34.3023 9.23833,36.7836 -45.94046,54.8849 -55.17895,18.1013 -144.51088,68.9659 -166.17989,91.1136 -23.79491,19.4549 -30.20349,25.9454 -37.88226,33.8893 -13.2063,13.662 -23.73782,24.7354 -26.70812,30.3002 -2.97029,5.5648 -11.62863,27.3096 -15.19237,41.1833 -4.81286,18.7334 -7.42574,43.4716 -6.2103,46.8455 1.21528,3.374 4.68474,19.1774 14.08998,36.7987 9.40524,17.6214 37.62288,48.4187 50.02115,59.3478 6.5031,5.7324 11.24106,9.3375 39.27911,28.6936 28.03805,19.356 75.4303,44.0629 83.22147,44.6157 6.78884,3.7597 30.13952,10.6213 41.74698,11.7693 10.20442,0.7471 21.56812,1.9894 32.15112,2.4491 l 19.24181,0.8362 7.81385,7.5288 7.81698,7.532 -1.02097,-6.8148 c -0.97827,-6.5359 -0.84686,-6.8148 3.16313,-6.8148 8.89261,0 18.30542,10.3976 18.30542,20.2221 0,1.3864 1.47902,4.4396 3.28839,6.7835 5.08032,6.5807 51.73929,53.1685 53.25009,53.1685 0.73616,0 3.19881,1.9844 5.47126,4.4096 2.27262,2.4253 3.50238,3.2905 2.73095,1.9261 -0.77144,-1.3645 0.29916,-0.643 2.38016,1.6035 2.08116,2.2463 3.22499,3.0046 2.54303,1.6818 -0.68196,-1.3229 0.54286,-0.5362 2.72155,1.7506 5.34922,5.6151 20.50666,13.8848 44.96333,24.5316 11.18606,4.8698 27.05614,12.3119 35.26726,16.539 8.21128,4.2272 17.09845,8.5613 19.74917,9.6303 6.88058,2.775 36.92768,2.2504 40.53188,-0.7077 1.5246,-1.2512 1.9377,-1.8606 0.9176,-1.3531 -1.2233,0.6087 -1.557,-0.215 -0.9803,-2.4207 0.6817,-2.6063 1.2084,-2.8733 2.3865,-1.2059 0.9542,1.3505 1.0344,-3.4773 0.2192,-13.091 -1.695,-19.9877 -1.2056,-39.5034 1.1337,-45.1512 2.5988,-6.2741 9.7342,-10.1659 24.6567,-13.4447 10.5973,-2.3283 17.5962,-2.6395 41.6906,-1.8635 33.741,1.0867 40.0528,2.4736 66.3473,14.5817 60.6801,27.9418 73.3102,33.5824 75.1822,33.5824 1.1421,0 2.0764,0.6022 2.0764,1.3373 0,2.1528 14.5565,1.5358 24.9166,-1.0554 14.3315,-3.5843 42.8965,-18.5344 60.068,-31.4404 43.9402,-33.025 130.612,-117.4366 176.8249,-172.2148 19.4564,-23.0624 49.2284,-62.1016 56.526,-74.1486 7.2975,-12.047 9.8616,-13.5219 12.6055,-15.7154 2.7439,-2.1935 5.7271,-4.576 44.9947,-23.2537 39.2675,-18.6776 47.745,-23.239 57.0051,-28.8032 49.535,-29.7645 90.7276,-61.8415 131.4857,-102.385 12.7878,-12.7204 21.8071,-22.1839 41.985,-46.4822 20.1781,-24.2983 23.2132,-26.955 23.5262,-26.6517 1.7453,1.6922 -19.6221,38.5909 -34.8414,60.1683 -8.6779,12.3034 23.3609,-15.0972 39.5234,-33.8016 35.7638,-41.3888 63.8433,-97.3887 84.5744,-168.6697 17.4353,-59.9485 16.8556,-126.9205 -1.5847,-183.2138 -5.3625,-16.3702 -12.9355,-33.0226 -18.794,-41.321 l -3.1067,-4.4002 4.5098,-3.9962 c 8.6385,-7.6538 27.8142,-20.2877 40.1748,-26.47 21.1071,-10.5572 37.8747,-14.6392 64.202,-15.634 22.2444,-0.8405 22.8192,-0.953 20.1813,-3.8678 -4.5418,-5.0187 -18.4044,-16.9119 -86.4284,-7.2157 -68.0239,9.6963 -67.2726,18.785 -73.7728,10.4822 -8.0084,-10.2295 -22.0842,-22.1296 -35.7965,-30.2595 -11.966,-7.0944 -31.6234,-16.6969 -46.0689,-17.9045 -14.4459,-1.2077 -14.8043,0.3307 -14.3593,-3.7237 0.6856,-6.2459 9.1323,-14.0508 18.8535,-17.4223 22.7082,-7.8756 45.4895,-27.6822 55.7023,-48.4271 4.0515,-8.2297 5.7816,-14.7215 7.5695,-28.4149 1.2746,-9.7609 3.3707,-20.266 4.657,-23.3445 1.2862,-3.0784 2.0339,-5.899 1.663,-6.2698 -0.3707,-0.3709 -6.2697,6.7764 -13.1097,15.8813 -6.84,9.105 -19.0552,23.1541 -27.1434,31.221 -12.4903,12.4578 -16.9785,15.7633 -29.8023,21.9509 -16.9701,8.188 -28.7742,11.5 -46.3663,13.0063 -15.693,1.3437 -27.1161,4.6497 -40.7668,11.7976 l -11.1022,5.8126 -37.0023,0.2505 c -42.5627,0.2879 -68.6246,2.9513 -109.9608,11.2432 -27.6545,5.5474 -60.9324,9.1661 -60.9324,6.6238 0,-2.6732 30.9775,-14.8644 47.3028,-18.6155 l 6.4139,-1.4751 -6.6989,-0.1597 c -19.7247,-0.4742 -48.8697,6.4624 -90.3119,21.4936 -36.0114,13.0615 -40.2891,13.8648 -45.9812,8.6313 -18.894,-17.3723 -34.3904,-65.1509 -45.7118,-140.9281 -3.3743,-22.5846 -3.7081,-30.1902 -3.6423,-83.3781 0.054,-43.6367 0.7967,-65.8704 2.9157,-87.3899 8.8823,-90.2104 24.2206,-187.3595 39.8084,-252.1198 7.5925,-31.5438 7.4247,-33.334 -3.658,-38.9878 -23.0337,-11.751 -85.2871,-19.2442 -160.2012,-19.2826 z m 621.7323,522.5637 c 0.042,0.013 0.071,0.044 0.088,0.094 0.8874,2.6621 -6.2634,21.7211 -12.0637,32.1574 -10.0728,18.1238 -26.4688,30.9456 -50.3312,39.3574 -23.6213,8.3267 -44.19,28.5019 -54.1521,53.1186 -9.4634,23.3845 -11.9992,28.0319 -18.6593,34.1711 -9.7816,9.0164 -22.4906,13.2771 -39.7207,13.3133 -16.0842,0.034 -18.7658,1.4978 -18.7658,10.2567 0,6.7102 -5.9372,13.4417 -11.857,13.4417 -6.0713,0 -6.3605,2.5875 -0.548,4.9012 6.9799,2.7785 7.0025,2.8145 3.47,5.487 -7.8665,5.9514 -22.7684,0.4923 -28.4399,-10.4195 -5.9531,-11.4535 0.6973,-31.8845 16.2509,-49.9273 6.7465,-7.8263 7.9405,-10.2696 8.7221,-17.8419 0.8473,-8.2098 3.792,-15.5807 6.2229,-15.5807 0.5859,0 0.6852,2.8424 0.2192,6.3168 -0.466,3.4744 -0.3351,8.345 0.2944,10.8235 l 1.1462,4.5067 3.2947,-6.4139 c 8.608,-16.7478 29.6698,-35.1622 53.0935,-46.4197 8.0726,-3.8796 25.1384,-10.4146 37.9262,-14.5253 33.2184,-10.6782 42.8479,-14.4407 54.3681,-21.2367 14.6382,-8.6356 33.0347,-24.8558 41.628,-36.7048 3.825,-5.2743 7.1896,-9.0767 7.8138,-8.8755 z m 103.6472,143.6121 c 0.3446,-0.011 0.5617,0.017 0.6356,0.091 0.3372,0.3371 -4.0497,2.8389 -9.7492,5.5589 -14.5759,6.9564 -36.2975,21.5307 -53.2282,35.7152 -18.5703,15.5579 -50.4675,48.427 -61.9784,63.8669 -27.0434,36.2738 -47.3311,82.0567 -56.6826,127.9092 -9.0682,44.4634 -20.5201,68.1916 -44.243,91.6805 -26.1144,25.8566 -48.522,35.9385 -80.0239,36.0063 -12.5896,0.027 -16.5064,-0.5932 -22.5835,-3.5734 -8.8518,-4.3408 -15.9654,-11.4848 -20.8171,-20.9048 l -3.5953,-6.9776 -11.9008,1.1149 c -38.6062,3.6177 -96.6595,25.4844 -116.2151,43.7764 -9.7888,9.1562 -13.7352,16.5991 -15.4492,29.132 -1.196,8.745 -1.985,10.1977 -8.7659,16.1664 -14.2848,12.5741 -23.9722,40.8351 -20.316,59.2632 0.7873,3.9686 1.4616,7.7312 1.5001,8.3619 0.1684,2.7641 10.7389,12.9528 16.4733,15.8783 3.5708,1.8217 12.9788,4.0352 21.7973,5.1299 13.9592,1.7328 15.5677,2.2731 16.013,5.3867 1.1936,8.3441 -17.162,35.8208 -34.8727,52.2009 -21.9467,20.2983 -82.8765,51.119 -109.0463,55.1605 -4.9779,0.7688 -9.0879,2.8738 -13.6297,6.9745 -3.5764,3.2292 -12.0896,10.028 -18.9192,15.111 -22.2685,16.5736 -31.6337,30.8615 -31.6626,48.3018 -0.019,12.0623 2.3826,15.6758 12.3425,18.5685 11.56,3.3572 52.8407,2.9046 65.9402,-0.7234 13.6755,-3.7875 25.6313,-9.2428 31.9381,-14.5723 6.6404,-5.6112 6.7652,-2.9089 0.4447,9.6553 -9.271,18.4292 -34.397,44.2184 -51.3553,52.7083 -16.7864,8.4039 -30.6056,5.6558 -20.4444,-4.065 l 3.6078,-3.4513 -4.0087,1.187 c -2.2048,0.6537 -8.5879,5.2482 -14.1871,10.2065 -27.7087,24.5369 -37.1965,27.9833 -66.7638,24.2684 -25.3716,-3.1879 -34.1016,-10.1403 -32.5927,-25.9627 l 0.5856,-6.1289 h -8.2523 c -4.5378,0 -14.2965,1.0237 -21.6877,2.2737 -7.3915,1.2499 -20.2967,2.7411 -28.6749,3.3134 -26.8846,1.8363 -42.9748,8.4869 -58.3674,24.1274 -7.9111,8.0385 -16.9963,23.3857 -16.9963,28.7124 0,3.2562 -2.583,3.235 -3.8365,-0.031 -0.5354,-1.3951 -0.974,-6.906 -0.974,-12.2485 0,-7.1623 -0.6901,-10.2196 -2.6338,-11.641 -2.1602,-1.5795 -2.6666,-5.2328 -2.8061,-20.222 -0.1599,-17.2227 0.1821,-19.3163 5.8784,-35.7746 8.9399,-25.831 16.9555,-41.6442 29.7459,-58.6838 12.9131,-17.2031 16.3167,-25.3025 16.3167,-38.8219 0,-16.1177 -6.2014,-25.3175 -17.0684,-25.3175 -5.6369,0 -14.1739,6.0941 -15.825,11.2964 -0.5476,1.7251 -1.6672,3.135 -2.4898,3.135 -4.2308,0 1.2585,-26.8972 8.6626,-42.4454 2.952,-6.1987 9.9698,-17.0439 15.5933,-24.0993 12.4497,-15.6194 19.8411,-27.6502 23.0344,-37.4877 1.323,-4.0756 4.235,-19.2622 6.4703,-33.7483 2.2353,-14.4861 5.5686,-31.8038 7.4099,-38.4836 4.5763,-16.6017 16.4301,-40.8693 29.8179,-61.0515 11.9408,-18.0008 34.8653,-46.501 37.4031,-46.501 0.8444,0 -2.086,5.5451 -6.511,12.3236 -17.5158,26.8315 -23.2505,44.401 -21.907,67.1272 1.5315,25.9057 12.7092,51.0876 27.0995,61.0514 6.1446,4.2544 7.7981,4.6131 21.2274,4.6131 13.8548,0 15.1281,-0.3022 26.2508,-6.2448 23.4871,-12.5486 42.4607,-40.0467 50.9013,-73.7728 6.6889,-26.7274 10.7797,-93.4173 7.1154,-115.9958 -4.7032,-28.9809 13.8425,-66.2804 51.227,-103.0364 17.7461,-17.4479 25.9537,-23.6358 59.8864,-45.1513 46.2125,-29.3018 52.6391,-33.8435 72.1787,-51.0202 24.5636,-21.5933 43.2506,-41.1132 47.6849,-49.8051 3.8604,-7.5669 7.9193,-24.9534 7.961,-34.1085 0.017,-3.6576 0.6684,-5.7109 1.6286,-5.1174 3.0944,1.9125 1.7347,22.4486 -2.4428,36.8645 -5.6822,19.6075 -17.9754,48.9509 -22.5365,53.795 -2.1088,2.2395 -10.8435,8.3728 -19.411,13.6296 -18.238,11.1906 -34.8162,26.1522 -43.6698,39.4107 -7.5045,11.2379 -18.0108,37.3899 -22.9061,57.0239 -4.6562,18.6751 -5.075,58.1765 -0.7892,74.2739 6.5491,24.5988 21.5753,44.5748 40.4911,53.8295 10.7262,5.2478 22.5331,5.9617 30.5007,1.8415 7.1299,-3.6871 18.7962,-16.8947 17.773,-20.1219 -0.4668,-1.4717 -2.0536,-5.9247 -3.5264,-9.8933 -7.7102,-20.7756 8.4878,-64.3516 33.9738,-91.4018 6.0743,-6.4471 11.9233,-11.0718 15.2331,-12.0449 3.8269,-1.1251 6.1981,-3.2713 8.2429,-7.4537 3.4948,-7.1486 10.6431,-12.7854 24.3467,-19.198 14.5503,-6.8089 17.0977,-5.3723 6.0694,3.4231 -12.5001,9.969 -21.0256,23.2484 -29.3795,45.7651 -6.0847,16.4008 -7.1092,20.9164 -7.1092,31.2021 0,9.8585 0.7272,13.3023 4.0087,19.1009 6.5418,11.5599 10.7026,13.6841 28.0422,14.3218 23.5193,0.8649 36.0962,-3.7422 66.4068,-24.3373 17.537,-11.9158 74.0147,-64.1912 85.4702,-79.1094 3.2706,-4.2593 11.7954,-15.2743 18.9443,-24.4782 15.5688,-20.0449 14.6899,-18.4749 21.8098,-38.9753 14.8047,-42.6261 27.5065,-59.9443 59.1285,-80.6221 16.0838,-10.5173 24.8634,-14.9131 44.2211,-22.1387 14.2394,-5.3152 48.2284,-14.7135 53.3974,-14.8918 z M 866.42097,3331.663 c 21.39954,-0.228 47.62598,2.2425 59.98974,6.7302 15.57593,5.6539 27.26645,13.3409 38.7373,25.4679 15.79882,16.7027 20.38178,28.9427 14.16203,37.8228 -2.38743,3.4085 -2.80379,3.4845 -6.32937,1.1744 l -3.77384,-2.4741 -0.48542,8.4026 -0.48544,8.3995 -8.01742,0.3978 c -24.65694,1.2186 -61.21367,-23.795 -93.15556,-63.7354 -8.64166,-10.8057 -10.24786,-12.0778 -15.82814,-12.5398 -4.37607,-0.362 -6.6265,0.23 -7.6197,2.0044 -1.88088,3.3612 -7.59598,3.2002 -10.24413,-0.2881 -3.20857,-4.227 -2.7663,-5.1514 3.78009,-7.8891 5.32632,-2.2274 16.43013,-3.3363 29.26986,-3.4731 z"
       style="opacity:1;fill:none;fill-rule:nonzero;stroke:none;stroke-width:0;stroke-miterlimit:4;stroke-dasharray:none"
       inkscape:connector-curvature="0" />
    <path
       sodipodi:nodetypes="ccccscccscssccccscccsccccsccscccccccsccssssccccscssccsssccsccscccccccccccsccccccccccsscccsccssscccccccccccccccccccccsccssscscccccccccscccccsssccsscccccsccscccsccccccccsccccccccscsccscccccscccccccccccccscsccscccsccccsccccccsccccccscccsssccccccscccscccccccsccsccsccccccccscccsscccsscscccscssccccsccccccsccsccccsccssssccccccscccccccssccsscccccssscsccccccscsccsccccsscscccccscccscccccsccccsccccccccccccccsccccccsccccccccsccccsccsscccccsssccssccsccccsccscssccsccccccscccscccsccccsscccccccccscccsscccccccsccscccccccccscscccsscscsscccccccccccccccscccccc"
       inkscape:connector-curvature="0"
       id="path90-3"
       d="m 995.49005,3507.3235 c -2.65072,-1.0691 -11.53756,-5.4023 -19.74884,-9.6296 -8.21112,-4.2271 -24.08161,-11.6701 -35.26768,-16.5399 -24.45667,-10.6468 -39.61361,-18.9162 -44.96283,-24.5311 -2.17866,-2.2869 -3.40308,-3.0755 -2.72112,-1.7526 0.68197,1.3229 -0.46276,0.5671 -2.54392,-1.6792 -2.08101,-2.2465 -3.15246,-2.968 -2.38102,-1.6035 0.77144,1.3644 -0.45667,0.4966 -2.72929,-1.9286 -2.27246,-2.4253 -4.73413,-4.4096 -5.47029,-4.4096 -1.5108,0 -48.1706,-46.5872 -53.25092,-53.1679 -1.80937,-2.3439 -3.28987,-5.396 -3.28987,-6.7824 0,-9.8245 -9.41293,-20.224 -18.30554,-20.224 -4.00999,0 -4.1394,0.279 -3.16111,6.8149 l 1.01998,6.8148 -7.81587,-7.5295 -7.81586,-7.5294 -19.24182,-0.8357 c -10.583,-0.4597 -21.94513,-1.7017 -32.14954,-2.4488 -11.60747,-1.148 -34.9595,-8.0113 -41.74833,-11.7711 -7.79117,-0.5528 -55.18264,-25.258 -83.22069,-44.614 -28.03805,-19.356 -32.77763,-22.9638 -39.28072,-28.6963 -12.39818,-10.9291 -40.61518,-41.7246 -50.02041,-59.3459 -9.4054,-17.6214 -12.8747,-33.426 -14.08998,-36.7999 -1.21545,-3.374 1.39759,-28.1122 6.21061,-46.8456 3.56359,-13.8737 12.22096,-35.6162 15.19142,-41.181 2.97029,-5.5648 13.50214,-16.6386 26.70844,-30.3006 7.67876,-7.9439 14.08744,-14.436 37.88235,-33.8909 21.66901,-22.1477 111.00154,-73.0106 166.1805,-91.1119 55.17879,-18.1012 54.79459,-20.5852 45.94095,-54.8876 -13.58296,-52.6254 -13.09245,-51.353 -24.09027,-62.4882 -10.89087,-11.027 -18.49411,-25.3276 -20.12934,-37.8602 l -1.04131,-7.9806 6.76687,10.0218 c 7.20798,10.6747 12.53749,13.519 10.55862,5.6348 -1.55281,-6.187 -18.26737,-40.1827 -28.19567,-57.3472 -59.88037,-103.5235 -163.59519,-231.7822 -237.88675,-294.1823 -37.85459,-31.7955 -60.41289,-43.0898 -91.73215,-45.928 l -11.83692,-1.0725 0.0321,-5.792 c 0.0545,-10.0429 4.39018,-39.0105 7.89203,-52.7259 15.58058,-61.0226 48.58013,-108.9999 129.35198,-188.0615 53.69736,-52.5606 104.37004,-89.4899 173.25654,-126.2661 168.98162,-90.2138 388.39262,-149.6476 552.14292,-149.5636 74.9141,0.038 137.168,7.5314 160.2017,19.2824 11.0827,5.6539 11.2505,7.4443 3.658,38.9883 -15.5877,64.7604 -30.9276,161.9086 -39.81,252.119 -2.119,21.5194 -2.8604,43.7532 -2.9143,87.39 -0.066,53.1879 0.2663,60.7943 3.6405,83.3787 11.3214,75.7774 26.8196,123.5556 45.7136,140.9279 5.6921,5.2335 9.9695,4.4306 45.9809,-8.6309 41.4422,-15.0312 70.5875,-21.9674 90.3121,-21.4931 l 6.6987,0.1611 -6.4139,1.4736 c -16.3253,3.7512 -47.3028,15.9412 -47.3028,18.6144 0,2.5423 33.2779,-1.0738 60.9324,-6.6211 41.3362,-8.2919 67.3978,-10.9571 109.9606,-11.2449 l 37.0021,-0.2503 11.1024,-5.8136 c 13.6506,-7.1479 25.074,-10.4534 40.767,-11.7972 17.5921,-1.5063 29.396,-4.8171 46.3662,-13.0052 12.8237,-6.1875 17.3131,-9.4941 29.8035,-21.9518 8.0881,-8.067 20.3019,-22.1168 27.1419,-31.2217 6.8399,-9.1049 12.7396,-16.251 13.1104,-15.8801 0.3708,0.3709 -0.3781,3.193 -1.6643,6.2714 -1.2863,3.0784 -3.3814,13.5833 -4.656,23.3442 -1.7879,13.6934 -3.5166,20.1834 -7.5682,28.4131 -10.2127,20.7449 -32.9965,40.5526 -55.7047,48.4283 -9.7211,3.3715 -18.1665,11.1761 -18.8522,17.422 -0.4449,4.0544 -0.088,2.5168 14.3578,3.7246 14.4455,1.2075 34.1034,10.81 46.0694,17.9045 13.7124,8.1298 27.7892,20.0281 35.7976,30.2576 6.5002,8.3028 5.7485,-0.7846 73.7725,-10.4809 68.0239,-9.6963 81.8867,2.1974 86.4286,7.216 2.6379,2.9148 2.0629,3.025 -20.1815,3.8655 -26.3273,0.9947 -43.0951,5.0783 -64.2022,15.6354 -12.3606,6.1823 -31.5346,18.8161 -40.173,26.4699 l -4.5113,3.997 3.1055,4.399 c 5.8585,8.2985 13.4324,24.9496 18.7949,41.3199 18.4402,56.2933 19.0194,123.2669 1.5841,183.2154 -20.7311,71.281 -48.8107,127.2809 -84.5745,168.6697 -16.1625,18.7044 -48.1988,46.1037 -39.521,33.8003 15.2194,-21.5773 36.584,-58.4747 34.8386,-60.1668 -0.313,-0.3034 -3.3464,2.3536 -23.5245,26.6518 -20.178,24.2984 -29.1976,33.7617 -41.9853,46.4821 -40.7582,40.5435 -81.9508,72.6187 -131.4858,102.3833 -9.2601,5.5642 -17.7385,10.1282 -57.0061,28.8058 -39.2676,18.6777 -42.2496,21.0576 -44.9935,23.2511 -2.7438,2.1935 -5.3072,3.6697 -12.6046,15.7167 -7.2977,12.047 -37.0712,51.0848 -56.5275,74.1473 -46.2129,54.7781 -132.8843,139.1903 -176.8244,172.2154 -17.1716,12.9059 -45.7353,27.8576 -60.0667,31.4419 -10.3601,2.5912 -24.918,3.207 -24.918,1.0541 0,-0.735 -0.9344,-1.3363 -2.0765,-1.3363 -1.8719,0 -14.501,-5.6414 -75.181,-33.5831 -26.2946,-12.1081 -32.6062,-13.4952 -66.3472,-14.5821 -24.0945,-0.7761 -31.0934,-0.4629 -41.6906,1.8654 -14.9225,3.2788 -22.0577,7.1688 -24.6565,13.4429 -2.3393,5.6478 -2.8298,25.1626 -1.1348,45.1503 0.8152,9.6135 0.7341,14.4437 -0.2201,13.0933 -1.1781,-1.6675 -1.7049,-1.4016 -2.3865,1.2047 -0.5768,2.2057 -0.2431,3.0305 0.9802,2.4219 1.0201,-0.5075 0.6074,0.101 -0.9172,1.3522 -3.6041,2.9581 -33.6504,3.4831 -40.53092,0.7081 z m 15.67505,-56.061 c 2.1696,-3.7482 4.8038,-9.4731 5.854,-12.7221 2.5263,-7.8165 11.9424,-16.085 23.5685,-20.6957 8.5759,-3.401 11.8252,-3.7321 35.8872,-3.6566 22.1637,0.069 29.7259,0.7668 46.5965,4.2953 24.8596,5.1993 44.4861,11.5318 65.2713,21.0593 15.7063,7.1995 27.7088,9.4795 30.0406,5.7067 1.5904,-2.5733 9.0976,-1.849 12.4646,1.2026 2.452,2.2224 6.6948,2.918 20.4001,3.3444 l 17.3042,0.5381 19.0114,-7.9956 c 10.4563,-4.3977 24.4231,-10.2344 31.0375,-12.9704 6.6144,-2.7361 15.4132,-6.9569 19.5531,-9.3791 23.2957,-13.6319 89.4172,-85.5436 135.269,-147.1146 38.8683,-52.1933 77.8009,-114.7115 121.8039,-195.5929 36.0748,-66.3089 72.9337,-146.3335 72.9337,-158.347 0,-2.1215 -5.48,-8.7284 -14.8714,-17.9296 -8.1792,-8.0138 -15.5753,-15.7989 -16.4357,-17.3005 -1.1734,-2.0478 -5.267,-3.1291 -16.3785,-4.3265 -17.8003,-1.9183 -26.6329,-0.082 -45.8332,9.528 -16.5095,8.2633 -25.5409,15.0104 -38.5465,28.797 -14.4726,15.3417 -18.5653,21.9565 -19.7442,31.9116 -0.9823,8.2924 -1.0719,8.4067 -10.2323,13.0309 -12.9005,6.5122 -21.96,20.3884 -23.3969,35.8368 -1.4265,15.3348 7.5959,23.4011 27.6282,24.7008 9.1128,0.5912 12.8362,0.083 18.8421,-2.5742 8.9318,-3.9509 22.9659,-16.7528 32.5844,-29.7232 l 6.9679,-9.3966 v 8.9539 c 0,6.1811 -1.484,12.6896 -4.792,21.0171 -7.5179,18.9253 -18.9509,40.9181 -26.2816,50.5562 -3.6895,4.8505 -9.8738,15.3132 -13.7431,23.2505 -6.0595,12.4298 -9.5685,17.0206 -25.3008,33.1002 -17.9625,18.3593 -24.2035,22.7891 -38.9194,27.6247 -3.9687,1.3041 -14.0706,4.8573 -22.4488,7.8961 -8.3811,3.0398 -21.7245,6.3842 -29.6645,7.435 -7.9372,1.0504 -19.401,3.3596 -25.475,5.1314 -9.7483,2.8437 -12.5699,4.6638 -24.0523,15.5152 -15.3899,14.544 -19.5498,20.1193 -21.9713,29.4464 -3.5381,13.6283 3.0152,20.5151 20.7273,21.7824 24.5045,1.7533 58.3444,-12.3664 96.4706,-40.2524 21.6341,-15.8235 47.4611,-31.0879 49.37,-29.179 0.4553,0.4551 -1.2669,2.4259 -3.8267,4.3794 -10.9528,8.3582 -33.5085,31.7708 -39.8758,41.3906 -3.7943,5.7325 -13.1431,21.607 -20.775,35.2767 -22.0827,39.5528 -39.7899,58.0663 -63.0601,65.9324 -8.8137,2.9793 -13.926,3.6143 -27.5062,3.4167 l -16.6804,-0.2428 -16.191,7.9486 c -18.5682,9.1156 -34.2772,12.1826 -53.0418,10.3558 -19.7308,-1.9209 -24.8282,-5.7588 -28.1362,-21.1831 -0.9782,-4.561 -2.9222,-9.2418 -4.3201,-10.4018 -4.4226,-3.67 -20.9284,-2.442 -31.3583,2.333 -8.3947,3.8432 -10.4156,4.1333 -22.7338,3.264 -12.5743,-0.8874 -14.1715,-0.6381 -22.8295,3.5632 -17.0163,8.257 -34.7929,30.1364 -40.6764,50.064 -3.8668,13.0971 -9.7269,7.1021 -14.5935,-14.9296 -5.0498,-22.8612 -5.0782,-58.2629 -0.062,-78.2761 4.5925,-18.3251 13.6508,-37.5307 27.1282,-57.5185 10.0096,-14.8448 10.7891,-16.638 11.3995,-26.2247 0.3873,-6.0805 -0.1606,-12.26 -1.339,-15.105 -4.2785,-10.3293 -16.558,-6.6246 -24.0379,7.2523 -2.3768,4.4096 -5.3333,8.0174 -6.5699,8.0174 -6.5182,0 -8.5267,-41.1152 -2.9099,-59.5609 4.9338,-16.2016 19.1548,-44.7049 31.0804,-62.2943 9.6159,-14.1827 10.4649,-16.1209 10.4088,-23.7608 l -0.061,-8.3185 -7.9886,8.5652 c -11.5965,12.4337 -28.243,36.4259 -42.3337,61.0148 -14.89,25.9837 -37.3351,70.3911 -43.8746,86.805 -13.7103,34.4131 -32.7794,72.8493 -46.98,94.6941 -6.06758,9.3337 -11.03197,17.7246 -11.03197,18.6464 0,0.9219 2.20623,2.5899 4.90281,3.7069 9.30956,3.8561 18.05366,14.3044 23.45196,28.0227 6.7364,17.1189 8.8898,29.8442 8.9548,52.915 0.074,26.3746 -2.1767,36.1128 -10.1772,44.0338 -4.5292,4.4841 -6.2871,7.5675 -6.2871,11.0278 0,2.6417 -1.4175,8.1101 -3.15,12.1519 -3.9617,9.2426 -1.6567,9.5859 3.5831,0.5338 z m -42.44138,-42.4749 0.48409,-8.4007 3.7746,2.4732 c 3.52559,2.3101 3.94329,2.2325 6.33072,-1.176 6.21976,-8.88 1.63732,-21.1187 -14.16149,-37.8214 -11.47085,-12.1269 -23.1625,-19.8131 -38.73843,-25.4669 -19.78203,-7.1805 -75.05494,-9.1981 -89.25845,-3.2582 -6.54639,2.7377 -6.98959,3.6627 -3.78102,7.8896 2.64816,3.4884 8.36137,3.6489 10.24226,0.2878 0.9932,-1.7746 3.24369,-2.3666 7.61976,-2.0044 5.58029,0.4619 7.1865,1.7344 15.82816,12.5401 31.94189,39.9405 68.50134,64.9526 93.15828,63.7339 l 8.01743,-0.3962 z m 141.42428,-63.857 c 0,-5.3268 9.0838,-20.6732 16.9949,-28.7118 15.3926,-15.6404 31.4842,-22.2925 58.3689,-24.1288 8.3782,-0.5722 21.2805,-2.0631 28.6719,-3.313 7.3913,-1.25 17.1515,-2.2726 21.6894,-2.2726 h 8.2507 l -0.5845,6.1277 c -1.5088,15.8224 7.221,22.7769 32.5926,25.9648 29.5673,3.7149 39.055,0.2658 66.7637,-24.271 5.5992,-4.9583 11.9843,-9.55 14.189,-10.2039 l 4.0088,-1.1887 -3.6079,3.4515 c -10.1611,9.7208 3.658,12.4675 20.4444,4.0636 16.9583,-8.4899 42.084,-34.2764 51.355,-52.7055 6.3205,-12.5642 6.196,-15.2671 -0.4443,-9.6558 -6.3068,5.3295 -18.2648,10.7853 -31.9403,14.5728 -13.0995,3.6279 -54.3807,4.081 -65.9408,0.7237 -9.9598,-2.8926 -12.3623,-6.5071 -12.3428,-18.5693 0.029,-17.4402 9.3942,-31.7281 31.6628,-48.3017 6.8295,-5.083 15.3434,-11.8838 18.9198,-15.113 4.5417,-4.1007 8.6518,-6.2031 13.6296,-6.9719 26.1698,-4.0415 87.099,-34.8625 109.0458,-55.1608 17.7106,-16.3801 36.0662,-43.8565 34.8726,-52.2006 -0.4453,-3.1136 -2.0519,-3.6541 -16.011,-5.3869 -8.8185,-1.0947 -18.2281,-3.3096 -21.7989,-5.1313 -5.7344,-2.9255 -16.3034,-13.113 -16.4718,-15.8771 -0.038,-0.6307 -0.714,-4.3938 -1.5013,-8.3625 -3.6561,-18.4281 6.0331,-46.6897 20.3179,-59.2639 6.781,-5.9687 7.5688,-7.4221 8.7648,-16.167 1.714,-12.533 5.6601,-19.9738 15.4489,-29.13 19.5557,-18.2919 77.6079,-40.1604 116.214,-43.778 l 11.9025,-1.1154 3.5949,6.98 c 4.8516,9.4198 11.9641,16.562 20.8159,20.9028 6.0771,2.9803 9.9966,3.6003 22.5862,3.5732 31.5019,-0.067 53.9086,-10.1497 80.0229,-36.0064 23.7229,-23.4888 35.1734,-47.2173 44.2416,-91.6807 9.3515,-45.8524 29.6391,-91.6328 56.6825,-127.9066 11.511,-15.4399 43.4105,-48.3118 61.9808,-63.8698 16.9307,-14.1844 38.6504,-28.7583 53.2262,-35.7147 5.6994,-2.72 10.0867,-5.2213 9.7495,-5.5585 -1.1843,-1.1843 -38.8448,9.1322 -54.0335,14.8018 -19.3578,7.2256 -28.1351,11.6198 -44.2188,22.137 -31.6221,20.6779 -44.3245,37.9981 -59.1292,80.6242 -7.12,20.5004 -6.2408,18.929 -21.8096,38.974 -7.1489,9.2038 -15.6738,20.2191 -18.9444,24.4784 -11.4555,14.9182 -67.9342,67.1925 -85.4712,79.1083 -30.3107,20.595 -42.8858,25.2042 -66.4051,24.3393 -17.3396,-0.6376 -21.501,-2.7631 -28.0427,-14.323 -3.2815,-5.7987 -4.0041,-9.2414 -4.0087,-19.0997 0,-10.2859 1.0238,-14.8012 7.1086,-31.2021 8.3538,-22.5166 16.8784,-35.7962 29.3785,-45.7652 11.0283,-8.7954 8.4818,-10.2317 -6.0685,-3.4228 -13.7036,6.4127 -20.8517,12.0491 -24.3465,19.1977 -2.0448,4.1824 -4.4168,6.3266 -8.2437,7.4517 -3.3098,0.9732 -9.1588,5.598 -15.2331,12.0451 -25.486,27.0501 -41.6829,70.6279 -33.9727,91.4036 1.4728,3.9686 3.0596,8.4197 3.5264,9.8916 1.0231,3.2271 -10.643,16.4358 -17.7729,20.1229 -7.9676,4.1201 -19.7759,3.4079 -30.5021,-1.8398 -18.9158,-9.2547 -33.9427,-29.2317 -40.4919,-53.8305 -4.2858,-16.0975 -3.8647,-55.5981 0.7915,-74.2731 4.8953,-19.634 15.3996,-45.7867 22.904,-57.0245 8.8537,-13.2584 25.4321,-28.2199 43.6701,-39.4105 8.5675,-5.2568 17.3023,-11.3902 19.411,-13.6296 4.5611,-4.8441 16.8542,-34.1893 22.5364,-53.7969 4.1775,-14.416 5.5395,-34.9505 2.4451,-36.863 -0.9602,-0.5934 -1.6147,1.459 -1.6314,5.1166 -0.042,9.1552 -4.099,26.5428 -7.9594,34.1096 -4.4342,8.692 -23.1227,28.21 -47.6863,49.8033 -19.5396,17.1767 -25.9651,21.7187 -72.1777,51.0205 -33.9326,21.5154 -42.1416,27.7047 -59.8877,45.1525 -37.3844,36.756 -55.9284,74.0561 -51.2252,103.037 3.6642,22.5785 -0.427,89.2671 -7.116,115.9945 -8.4406,33.7261 -27.4125,61.2235 -50.8996,73.7721 -11.1227,5.9426 -12.3989,6.2462 -26.2536,6.2462 -13.4294,0 -15.081,-0.3589 -21.2255,-4.6133 -14.3903,-9.9638 -25.5678,-35.1449 -27.0992,-61.0506 -1.3436,-22.7262 4.3898,-40.2954 21.9056,-67.1268 4.425,-6.7786 7.3546,-12.3246 6.5102,-12.3246 -2.5378,0 -25.4616,28.5002 -37.4024,46.5011 -13.3878,20.1821 -25.2395,44.4497 -29.8158,61.0514 -1.8413,6.6799 -5.1767,23.9975 -7.412,38.4837 -2.2353,14.4861 -5.1465,29.673 -6.4696,33.7485 -3.1933,9.8376 -10.586,21.868 -23.0358,37.4874 -5.6234,7.0554 -12.6396,17.8996 -15.5916,24.0983 -7.4041,15.5482 -12.8938,42.4463 -8.663,42.4463 0.8226,0 1.9434,-1.4114 2.491,-3.1365 1.6511,-5.2023 10.1864,-11.2948 15.8233,-11.2948 10.867,0 17.0704,9.2009 17.0704,25.3186 0,13.5194 -3.4039,21.6177 -16.317,38.8208 -12.7904,17.0396 -20.8062,32.8536 -29.7461,58.6846 -5.6962,16.4583 -6.0402,18.5509 -5.8803,35.7735 0.1395,14.9893 0.6459,18.6408 2.8061,20.2204 1.9437,1.4213 2.6363,4.4793 2.6363,11.6415 0,5.3426 0.4379,10.8552 0.9733,12.2502 1.2534,3.2663 3.8371,3.2867 3.8371,0.03 z m -370.74198,-16.5282 c 6.5427,-3.2987 16.60504,-2.7874 27.99957,1.4229 13.25857,4.899 60.10052,-3.7028 96.26247,-17.677 59.34128,-22.9316 107.13875,-58.3718 145.95864,-108.2234 34.0158,-43.6824 85.2731,-135.1517 113.6675,-202.8408 12.092,-28.8266 17.6859,-39.6408 32.0663,-61.9922 5.5372,-8.6066 12.3101,-22.2187 16.3557,-32.8715 7.732,-20.3597 10.3752,-26.0885 19.4872,-42.2341 6.1612,-10.9172 6.3592,-11.7512 7.2386,-30.4663 l 0.9039,-19.2418 10.9636,-18.44 c 52.7947,-88.7973 125.6152,-166.8941 207.7076,-222.7571 22.117,-15.0505 40.9542,-26.5521 65.7428,-40.1413 10.1421,-5.5598 19.8905,-11.4218 21.6633,-13.0265 10.0455,-9.0936 79.2134,-31.9809 125.7738,-41.618 27.3028,-5.6512 21.4086,-6.0556 -10.1818,-0.6988 -69.4939,11.7845 -117.7502,27.0286 -174.9372,55.2626 -61.733,30.4784 -103.7242,61.0282 -152.3538,110.8411 -47.2814,48.4319 -87.7433,109.6666 -141.3197,213.8721 -9.9755,19.4022 -18.1523,34.0686 -18.1707,32.5921 -0.018,-1.4766 2.3885,-9.7747 5.3491,-18.4401 23.3068,-68.2226 61.8802,-135.3602 112.98,-196.6439 10.149,-12.1713 13.3535,-17.2162 14.1668,-22.3021 0.7559,-4.7272 3.181,-8.9248 8.6374,-14.9498 7.9308,-8.7576 14.3712,-22.819 14.3712,-31.3771 v -4.8656 l -9.22,0.9693 -9.2201,0.9693 4.8105,-3.6601 c 2.6457,-2.013 8.4183,-7.2261 12.8278,-11.5847 6.1951,-6.1234 7.3987,-8.0601 5.2954,-8.5198 -3.4162,-0.7466 -7.2146,1.2865 -21.3159,11.4094 -27.2998,19.5976 -80.0503,62.9387 -138.4111,113.722 -70.2385,61.1189 -116.0621,93.2385 -154.85969,108.547 -29.6542,11.7008 -69.64927,20.707 -104.40769,23.5111 l -14.43136,1.1641 9.62091,3.028 c 5.61572,1.7674 18.55937,3.6444 31.09236,4.5087 11.86996,0.8186 22.48775,2.3242 23.74408,3.3668 3.12295,2.5919 5.14976,7.7181 20.49991,51.8495 7.36208,21.166 16.98876,48.2248 21.39257,60.1307 9.53689,25.7836 12.39895,36.3721 15.57753,57.6298 3.62869,24.2689 10.43532,36.7322 25.12448,46.0051 4.4819,2.8293 6.0809,4.9292 6.0809,7.9859 0,4.6667 4.4773,15.0544 6.4887,15.0544 0.7219,0 1.8243,-1.6121 2.4496,-3.5824 0.6254,-1.9703 5.2537,-7.9232 10.2851,-13.2287 15.1217,-15.9453 22.3981,-25.8779 41.711,-56.9379 l 18.4381,-29.6531 0.4654,13.1903 c 0.4095,11.6109 -0.1235,14.662 -4.4563,25.4813 -5.1273,12.8045 -22.6989,45.8003 -37.2544,69.9557 -12.9497,21.4908 -27.2425,40.9635 -39.7569,54.166 -11.6267,12.2659 -11.8698,11.9385 -2.374,-3.1955 3.0181,-4.81 5.1347,-9.0982 4.7037,-9.5292 -0.4311,-0.4311 -4.9139,3.197 -9.9618,8.0625 -10.20398,9.8349 -26.01482,23.0098 -26.01482,21.6775 0,-0.4727 1.36905,-3.2457 3.04229,-6.1624 6.85217,-11.9438 5.24436,-12.6331 -4.99341,-2.1405 -6.31404,6.4712 -11.52842,10.4672 -13.65848,10.4672 -1.89516,0 -7.43825,-3.4939 -12.31797,-7.7641 -4.87989,-4.2702 -16.56817,-12.3879 -25.97405,-18.0392 -26.75205,-16.0736 -63.35127,-50.3215 -72.07647,-67.4461 -5.72701,-11.2401 -10.85222,-32.7189 -10.65435,-44.6503 0.39477,-23.8068 -0.24389,-24.1564 -46.16481,-25.2768 -42.94468,-1.0478 -65.34857,1.1262 -88.4001,8.5783 -58.05288,18.7672 -123.02576,55.737 -152.35833,86.6925 -22.22253,23.4521 -31.8683,61.2253 -24.72926,96.8419 3.57882,17.8547 7.94045,27.0203 19.95392,41.9312 24.14707,29.9709 71.62929,64.7329 113.5067,83.0989 19.27565,8.4536 30.87622,10.9071 52.31753,11.0651 13.89291,0.1023 18.47343,-0.4635 23.25053,-2.8721 z m 14.82389,-18.3821 c 0.47159,-0.501 14.18138,-5.3379 30.46621,-10.7486 77.61154,-25.7866 145.67946,-58.4593 182.73615,-87.7137 5.44544,-4.2989 5.4084,-4.1958 -1.29176,3.5913 -11.25005,13.075 -25.45228,24.2775 -48.11064,37.9486 -46.25219,27.9068 -91.83733,45.2996 -139.95037,53.3972 -8.29723,1.3964 -17.25061,2.9659 -19.89636,3.4876 -2.64574,0.5217 -4.42465,0.5387 -3.95323,0.038 z m 530.44469,-313.6174 c 13.0811,-6.6735 31.1439,-26.6991 40.0811,-44.4365 5.8341,-11.5791 14.3548,-69.5115 12.3959,-84.2795 -1.7849,-13.4551 -5.1387,-19.3608 -17.0526,-30.0275 l -11.1947,-10.023 -12.3892,11.2223 c -22.4076,20.2971 -36.5335,37.5496 -49.9715,61.0323 -6.8927,12.0447 -8.1168,15.4406 -8.1168,22.5173 0,4.5834 -0.7365,9.7097 -1.6369,11.3917 -5.9662,11.1481 -4.6603,35.9992 2.4569,46.7541 l 4.3115,6.515 9.1563,-0.8303 9.1562,-0.8302 -0.6818,4.6455 c -0.3748,2.555 0.2111,5.7212 1.3022,7.036 2.8182,3.3956 14.915,3.0208 22.1834,-0.6872 z m 255.3328,-140.0714 c 8.5405,-5.7554 12.7009,-13.1676 12.7118,-22.6477 0.016,-12.9589 4.3506,-38.3355 8.8634,-51.8787 5.7583,-17.2801 15.1307,-32.3772 29.3202,-47.2294 30.5631,-31.99 62.5805,-46.2983 103.2208,-46.1288 l 10.1155,0.042 -11.3173,6.0091 c -24.7565,13.1449 -38.0098,26.0005 -47.348,45.9278 -10.5259,22.4618 -13.2379,39.5676 -8.6971,54.8581 3.3832,11.3921 6.8553,13.97 19.7764,14.6826 19.1467,1.0563 36.1459,-7.8174 49.3878,-25.7805 22.4169,-30.4093 36.9375,-78.3523 43.2149,-142.6833 1.2457,-12.7657 2.8824,-12.1605 -22.6398,-8.3708 -22.5456,3.3475 -56.6357,11.9336 -81.7059,20.5784 -56.9471,19.6368 -96.8597,41.1381 -152.0637,81.9181 -4.2324,3.1264 -5.8003,11.5436 -6.8846,36.9591 -1.1016,25.8203 0.9005,37.6271 9.1529,53.9749 8.3436,16.5286 26.3321,33.1385 36.1117,33.3442 1.854,0.039 5.8055,-1.57 8.781,-3.5751 z m -473.847,-111.006 c 30.9784,-15.0216 90.9856,-69.8356 123.5815,-112.8864 8.5631,-11.3099 10.2013,-14.4971 10.2013,-19.8489 0,-6.7047 -7.7094,-26.2872 -19.9828,-50.7588 -25.666,-51.1741 -87.3787,-226.5748 -112.8695,-320.7989 -16.7593,-61.949 -30.2311,-122.5757 -36.3195,-163.4458 -1.3704,-9.1998 -3.2813,-17.6782 -4.2462,-18.8409 -2.556,-3.0798 -8.5676,-2.5933 -16.2242,1.3128 -11.75808,5.9984 -53.17545,34.7117 -56.11431,38.9021 -1.5557,2.2181 -8.4106,6.966 -15.23311,10.5508 -7.3393,3.8564 -25.41635,16.9797 -44.27012,32.1391 -17.52609,14.0919 -32.18611,25.6216 -32.578,25.6216 -4.20802,0 43.64461,-45.4012 65.91268,-62.5359 6.30362,-4.8505 16.12833,-12.5821 21.83273,-17.1812 5.70423,-4.5991 14.87616,-11.8148 20.38205,-16.0348 5.50604,-4.2201 17.41192,-13.515 26.45749,-20.6555 25.29019,-19.963 55.70389,-40.7679 82.18969,-56.2228 32.2468,-18.8162 83.6142,-44.9075 108.2352,-54.9761 11.0239,-4.5082 23.6514,-9.7048 28.061,-11.548 25.9711,-10.8562 54.0881,-18.4668 108.509,-29.3712 37.7714,-7.5681 52.8119,-11.687 53.8054,-14.7346 0.3352,-1.0281 -2.8136,-2.9536 -7.0957,-4.339 -30.0159,-9.7113 -103.3468,-7.8365 -212.1424,5.4238 -75.0832,9.1514 -123.9991,21.2787 -228.4966,56.6498 -148.51234,50.2694 -232.51473,93.6915 -348.7579,180.278 -30.0248,22.3648 -69.53819,61.0567 -83.8711,82.1276 -5.09908,7.4963 -12.45507,18.3198 -16.34672,24.0523 -3.89166,5.7325 -10.28876,15.1128 -14.21602,20.8453 -9.2954,13.5687 -20.51979,36.0019 -26.07506,52.1133 -3.57064,10.3559 -4.44053,15.7632 -4.51477,28.0609 -0.0834,13.9552 0.30482,15.9486 4.63295,23.7618 12.11737,21.8744 38.76183,32.6004 74.64798,30.0502 77.18087,-5.4847 137.2179,-28.5459 198.83196,-76.3748 19.63322,-15.2404 50.06143,-44.8812 69.03819,-67.2512 8.22058,-9.6907 15.57737,-17.6194 16.34833,-17.6194 2.52244,0 -7.44851,16.4403 -15.0099,24.7488 -8.00316,8.7938 -14.25466,19.6975 -14.25466,24.8627 0,2.1219 2.07298,4.3069 6.01307,6.3382 6.87478,3.5442 11.30552,7.4543 16.94883,14.9575 3.54482,4.7133 66.78401,124.6764 69.33804,131.5327 0.9374,2.5162 -0.19947,2.8061 -11.00792,2.8061 h -12.05307 l -20.58907,-31.9502 c -11.32381,-17.5725 -20.79142,-31.3964 -21.03884,-30.7199 -0.24742,0.6767 7.40714,19.5683 17.01025,41.9815 10.8992,25.4383 19.01989,46.9505 21.61128,57.2492 7.21568,28.6759 16.22759,43.4809 33.85918,55.6242 8.39906,5.7846 10.45777,8.8827 49.95993,75.1811 22.65997,38.0315 42.94373,70.952 45.07508,73.1568 l 3.8753,4.0087 -1.5347,-4.0087 c -0.84391,-2.2048 -17.46242,-36.3608 -36.93001,-75.9022 l -35.39564,-71.8936 5.04392,-6.2763 c 2.77403,-3.452 5.4642,-6.2732 5.97811,-6.2692 0.51376,0 14.60823,28.6862 31.32103,63.7386 61.28678,128.5382 69.28805,143.5251 89.53685,167.7102 13.0488,15.5854 18.5717,16.53 38.9295,6.6586 z m 623.5302,-149.1557 c 3.5325,-2.6725 3.5096,-2.7086 -3.4704,-5.4871 -5.8125,-2.3138 -5.5232,-4.901 0.5481,-4.901 5.9197,0 11.8586,-6.7321 11.8586,-13.4424 0,-8.7588 2.6803,-10.2239 18.7646,-10.2578 17.2301,-0.037 29.9377,-4.2949 39.7193,-13.3113 6.66,-6.1391 9.198,-10.7862 18.6615,-34.1706 9.9621,-24.6167 30.5306,-44.7933 54.1519,-53.1201 23.8624,-8.4117 40.2582,-21.2323 50.331,-39.356 5.8003,-10.4363 12.9494,-29.4966 12.062,-32.1587 -0.2653,-0.796 -3.8207,3.1556 -7.9008,8.7816 -8.5933,11.849 -26.99,28.0703 -41.6283,36.7059 -11.5202,6.796 -21.1477,10.5565 -54.3661,21.2348 -12.7878,4.1106 -29.8553,10.6482 -37.9279,14.5278 -23.4237,11.2576 -44.4842,29.6709 -53.0921,46.4187 l -3.2965,6.4139 -1.1444,-4.5064 c -0.6295,-2.4787 -0.7631,-7.3493 -0.2971,-10.8235 0.466,-3.4745 0.368,-6.3171 -0.2179,-6.3171 -2.4309,0 -5.3741,7.3707 -6.2214,15.5806 -0.7815,7.5722 -1.9766,10.0166 -8.7231,17.843 -15.5536,18.0428 -22.2031,38.4721 -16.25,49.9255 5.6715,10.9119 20.5725,16.3717 28.439,10.4202 z m -470.9094,-9.1855 c 2.7229,-3.7482 11.8974,-13.6697 20.3878,-22.0479 12.9192,-12.7482 15.3175,-15.8872 14.7019,-19.2418 -0.4046,-2.2048 -4.4145,-12.931 -8.911,-23.8358 -14.2297,-34.5098 -50.4833,-146.5951 -63.3444,-195.8416 -3.1093,-11.9059 -9.5954,-40.4078 -14.4134,-63.3377 -19.5621,-93.0988 -52.2436,-256.088 -52.2436,-260.5489 0,-1.5575 -1.0668,-3.717 -2.3708,-4.7992 -1.9096,-1.5848 -3.3914,-1.3385 -7.6165,1.2664 -2.8852,1.7787 -12.943,7.7158 -22.3508,13.1933 -9.4079,5.4777 -19.6416,12.5761 -22.7416,15.7746 l -5.6364,5.8155 1.3581,17.6384 c 0.7469,9.701 1.8358,33.152 2.4198,52.1132 1.017,33.0201 1.3681,35.8619 8.3221,67.3464 31.665,143.3648 79.0719,284.884 133.6144,398.8668 6.4357,13.4492 12.1902,24.4531 12.7876,24.4531 0.5976,0 3.3141,-3.0667 6.0368,-6.8148 z m 58.1292,-58.067 c 0,-0.4084 -1.3875,-4.2624 -3.0832,-8.5645 -11.5083,-29.1969 -56.2581,-195.8479 -73.7125,-274.5099 -13.4083,-60.4271 -27.6558,-150.3873 -34.6447,-218.7509 -2.4482,-23.9466 -5.1767,-34.5998 -8.8621,-34.5998 -0.8593,0 -1.5623,1.6295 -1.5623,3.6208 0,5.1621 12.4788,123.0652 14.5514,137.486 2.0536,14.2883 10.7447,55.8994 24.7833,118.6579 23.4066,104.6368 26.3176,115.6943 51.4995,195.6251 13.7532,43.6549 25.3217,79.9137 25.7077,80.5751 0.7554,1.2945 5.3229,1.6894 5.3229,0.4602 z m 19.4055,-14.145 c 2.9968,-2.0146 5.6647,-5.1512 5.9288,-6.9702 0.2641,-1.819 -3.1777,-15.1431 -7.6485,-29.6093 -8.2573,-26.719 -15.4454,-59.0338 -19.9852,-89.8456 -3.1877,-21.6346 -3.1516,-25.4297 0.2652,-27.9282 2.6225,-1.9176 2.6256,-2.4606 0.055,-9.7976 -4.7839,-13.6518 -20.3571,-78.3091 -31.0299,-128.8307 -12.6799,-60.0221 -24.6765,-135.6465 -27.8536,-175.5816 -0.9121,-11.4649 -1.9962,-24.8141 -2.4094,-29.6646 -0.7559,-8.875 -9.4644,-44.4087 -11.3442,-46.2886 -0.5551,-0.555 -2.0324,0.3904 -3.2833,2.101 -2.762,3.7774 -3.0457,34.5936 -0.6424,69.797 1.2718,18.6288 8.4523,68.3179 13.794,95.4538 0.6138,3.1174 0.4009,4.2461 -0.6046,3.207 -0.8536,-0.8819 -3.5486,-11.8708 -5.9889,-24.4195 -5.2992,-27.248 -8.1892,-29.0129 -6.663,-4.069 1.1913,19.4689 10.6469,83.9822 16.3966,111.8697 6.8257,33.1062 13.3681,73.0159 15.1142,92.2004 3.2764,35.9975 15.1107,97.7994 24.0809,125.7561 5.3531,16.684 19.7745,55.6494 25.4137,68.6664 3.8624,8.9155 7.6622,9.8313 16.4052,3.9535 z"
       style="fill:#666666;stroke:none;stroke-width:1.60348463" />
    <path
       inkscape:connector-curvature="0"
       id="path3827"
       d="m 968.72372,3408.7877 0.48409,-8.4008 3.7746,2.4732 c 3.52559,2.3101 3.94329,2.2325 6.33072,-1.176 6.21976,-8.8801 1.63732,-21.1187 -14.16149,-37.8214 -11.47085,-12.127 -23.1625,-19.8131 -38.73843,-25.4668 -19.78203,-7.1806 -75.05497,-9.1983 -89.25848,-3.2583 -6.54639,2.7376 -6.98959,3.6626 -3.78102,7.8896 2.64816,3.4884 8.36137,3.6489 10.24226,0.2878 0.9932,-1.7746 3.24369,-2.3666 7.61976,-2.0043 5.58029,0.4618 7.1865,1.7343 15.82816,12.54 31.94192,39.9406 68.50137,64.9525 93.15831,63.7339 l 8.01743,-0.3962 z"
       style="fill:none;stroke:none;stroke-width:1.60348463" />
    <path
       inkscape:connector-curvature="0"
       id="path3825"
       d="m 1110.148,3344.9308 c 0,-5.327 9.0838,-20.6733 16.9949,-28.7119 15.3926,-15.6404 31.4842,-22.2924 58.3689,-24.1287 8.3782,-0.5723 21.2805,-2.0632 28.6719,-3.3131 7.3913,-1.25 17.1515,-2.2727 21.6894,-2.2727 h 8.2507 l -0.5845,6.1278 c -1.5088,15.8223 7.221,22.777 32.5926,25.9647 29.5673,3.715 39.055,0.2659 66.7637,-24.271 5.5992,-4.9583 11.9843,-9.55 14.189,-10.2038 l 4.0088,-1.1888 -3.6079,3.4515 c -10.1611,9.7208 3.658,12.4676 20.4444,4.0637 16.9583,-8.4899 42.084,-34.2764 51.355,-52.7055 6.3205,-12.5643 6.196,-15.2671 -0.4443,-9.6557 -6.3068,5.3293 -18.2648,10.7852 -31.9403,14.5727 -13.0995,3.6279 -54.3807,4.0811 -65.9408,0.7237 -9.9598,-2.8925 -12.3623,-6.5071 -12.3428,-18.5693 0.029,-17.4402 9.3942,-31.728 31.6628,-48.3016 6.8295,-5.0831 15.3434,-11.8839 18.9198,-15.113 4.5417,-4.1008 8.6518,-6.2033 13.6296,-6.972 26.1698,-4.0416 87.099,-34.8625 109.0458,-55.1608 17.7106,-16.3801 36.0662,-43.8564 34.8726,-52.2006 -0.4453,-3.1137 -2.0519,-3.6542 -16.011,-5.387 -8.8185,-1.0947 -18.2281,-3.3095 -21.7989,-5.1313 -5.7344,-2.9254 -16.3034,-13.1129 -16.4718,-15.877 -0.038,-0.6307 -0.714,-4.3939 -1.5013,-8.3625 -3.6561,-18.4281 6.0331,-46.6898 20.3179,-59.2639 6.781,-5.9688 7.5688,-7.422 8.7648,-16.1669 1.714,-12.533 5.6601,-19.974 15.4489,-29.13 19.5557,-18.2921 77.6079,-40.1604 116.214,-43.7782 l 11.9025,-1.1154 3.5949,6.98 c 4.8516,9.42 11.9641,16.5622 20.8159,20.903 6.0771,2.9801 9.9966,3.6001 22.5862,3.573 31.5019,-0.067 53.9086,-10.1495 80.0229,-36.0062 23.7229,-23.4888 35.1734,-47.2173 44.2416,-91.6807 9.3515,-45.8526 29.6393,-91.6329 56.6827,-127.9068 11.5109,-15.4397 43.4105,-48.3117 61.9808,-63.8696 16.9307,-14.1845 38.6504,-28.7584 53.2262,-35.7148 5.6992,-2.72 10.0865,-5.2212 9.7493,-5.5584 -1.1843,-1.1844 -38.8447,9.1321 -54.0334,14.8016 -19.3577,7.2257 -28.135,11.6199 -44.2188,22.1372 -31.622,20.6777 -44.3245,37.9979 -59.1291,80.624 -7.1201,20.5005 -6.2409,18.9291 -21.8098,38.974 -7.1488,9.2038 -15.6738,20.2193 -18.9444,24.4786 -11.4554,14.9182 -67.9342,67.1923 -85.4712,79.1081 -30.3107,20.5951 -42.8858,25.2044 -66.4051,24.3394 -17.3396,-0.6377 -21.501,-2.7631 -28.0427,-14.3231 -3.2815,-5.7985 -4.0041,-9.2412 -4.0087,-19.0997 0,-10.2857 1.0238,-14.8012 7.1086,-31.2019 8.3538,-22.5168 16.8784,-35.7964 29.3785,-45.7654 11.0283,-8.7953 8.4818,-10.2317 -6.0685,-3.4228 -13.7036,6.4127 -20.8517,12.0492 -24.3465,19.1977 -2.0448,4.1826 -4.4168,6.3267 -8.2437,7.4517 -3.3098,0.9732 -9.1588,5.5981 -15.2331,12.0453 -25.486,27.0501 -41.6829,70.6278 -33.9727,91.4034 1.4728,3.9686 3.0596,8.4199 3.5264,9.8917 1.0231,3.2272 -10.643,16.4359 -17.7729,20.1228 -7.9676,4.1203 -19.7759,3.408 -30.5021,-1.8398 -18.9158,-9.2546 -33.9427,-29.2316 -40.4919,-53.8305 -4.2858,-16.0973 -3.8647,-55.5979 0.7915,-74.2731 4.8953,-19.6338 15.3996,-45.7865 22.904,-57.0244 8.8537,-13.2585 25.4321,-28.2198 43.6701,-39.4104 8.5675,-5.2569 17.3023,-11.3902 19.411,-13.6296 4.5611,-4.8441 16.8542,-34.1895 22.5364,-53.7971 4.1775,-14.4158 5.5395,-34.9505 2.4451,-36.863 -0.9602,-0.5934 -1.6147,1.4592 -1.6314,5.1167 -0.042,9.1553 -4.099,26.5427 -7.9594,34.1097 -4.4342,8.692 -23.1227,28.2099 -47.6863,49.8033 -19.5396,17.1766 -25.9651,21.7185 -72.1777,51.0204 -33.9326,21.5154 -42.1416,27.7046 -59.8877,45.1524 -37.3844,36.7562 -55.9284,74.0563 -51.2252,103.0372 3.6642,22.5785 -0.427,89.2669 -7.116,115.9945 -8.4406,33.7261 -27.4125,61.2234 -50.8996,73.772 -11.1227,5.9426 -12.3989,6.2462 -26.2536,6.2462 -13.4294,0 -15.081,-0.3589 -21.2255,-4.6133 -14.3903,-9.9638 -25.5678,-35.1448 -27.0992,-61.0505 -1.3436,-22.7262 4.3898,-40.2955 21.9056,-67.1269 4.425,-6.7786 7.3546,-12.3247 6.5102,-12.3247 -2.5378,0 -25.4616,28.5004 -37.4024,46.5011 -13.3878,20.1821 -25.2395,44.4498 -29.8158,61.0515 -1.8413,6.6798 -5.1767,23.9975 -7.412,38.4837 -2.2353,14.486 -5.1465,29.6729 -6.4696,33.7485 -3.1933,9.8375 -10.586,21.868 -23.0358,37.4874 -5.6234,7.0553 -12.6396,17.8995 -15.5916,24.0983 -7.4041,15.5482 -12.8938,42.4463 -8.663,42.4463 0.8226,0 1.9434,-1.4114 2.491,-3.1366 1.6511,-5.2022 10.1864,-11.2948 15.8233,-11.2948 10.867,0 17.0704,9.201 17.0704,25.3187 0,13.5193 -3.4039,21.6177 -16.317,38.8207 -12.7904,17.0396 -20.8062,32.8536 -29.7461,58.6847 -5.6962,16.4583 -6.0402,18.5508 -5.8803,35.7735 0.1395,14.9893 0.6459,18.6409 2.8061,20.2203 1.9437,1.4213 2.6363,4.4793 2.6363,11.6416 0,5.3427 0.4379,10.8553 0.9733,12.2502 1.2534,3.2663 3.8371,3.2866 3.8371,0.03 z"
       style="fill:none;stroke:none;stroke-width:1.60348463" />
    <path
       inkscape:connector-curvature="0"
       id="path3813"
       d="m 1689.6892,2596.1679 c 3.5324,-2.6725 3.5095,-2.7088 -3.4705,-5.4871 -5.8124,-2.3138 -5.5232,-4.9012 0.5481,-4.9012 5.9197,0 11.8586,-6.7319 11.8586,-13.4422 0,-8.7589 2.6804,-10.2241 18.7646,-10.258 17.2301,-0.037 29.9377,-4.2947 39.7193,-13.3111 6.6601,-6.1393 9.198,-10.7862 18.6615,-34.1708 9.9621,-24.6167 30.5307,-44.7933 54.1519,-53.1199 23.8626,-8.4119 40.2584,-21.2324 50.3312,-39.3562 5.8002,-10.4363 12.9494,-29.4966 12.062,-32.1586 -0.2654,-0.7961 -3.8208,3.1557 -7.9008,8.7817 -8.5933,11.8489 -26.9901,28.0703 -41.6283,36.7058 -11.5204,6.7961 -21.1478,10.5564 -54.3663,21.2347 -12.7878,4.1106 -29.8553,10.6484 -37.9278,14.528 -23.4238,11.2574 -44.4843,29.6707 -53.0922,46.4185 l -3.2965,6.4139 -1.1444,-4.5064 c -0.6295,-2.4785 -0.7631,-7.3491 -0.2971,-10.8235 0.466,-3.4745 0.368,-6.3171 -0.2179,-6.3171 -2.4309,0 -5.3741,7.3709 -6.2214,15.5807 -0.7815,7.5723 -1.9766,10.0167 -8.7231,17.8429 -15.5536,18.0429 -22.2031,38.4723 -16.25,49.9257 5.6715,10.9118 20.5725,16.3715 28.4391,10.4202 z"
       style="fill:none;stroke:none;stroke-width:1.60348463" />
  </g>
  <g
     transform="matrix(10.050586,0,0,10.050586,49.316757,1705.4592)"
     inkscape:label="Layer 1"
     id="layer1">
    <g
       id="g818">
      <path
         inkscape:connector-curvature="0"
         id="path4658"
         d="m 48.106696,209.61666 c 0.267418,-0.12784 2.710462,-0.65657 5.429005,-1.1749 l 4.942781,-0.9424 3.18e-4,-1.26577 c 3.17e-4,-1.2452 0.0115,-1.25622 0.64862,-0.67906 0.35657,0.32268 0.65051,0.89228 0.65325,1.26575 0.0101,1.43065 0.36842,1.56938 3.437761,1.33218 1.582898,-0.12238 3.388518,-0.34603 4.012491,-0.49708 0.623948,-0.15105 1.952458,-0.37157 2.952207,-0.49003 1.665251,-0.19731 1.832652,-0.15834 1.995533,0.46449 0.127688,0.4882 0.436189,0.67988 1.094438,0.67988 0.916011,0 8.25637,-1.31002 8.523099,-1.5211 0.0776,-0.0614 0.22344,-0.70894 0.32413,-1.43896 l 0.18306,-1.32733 4.294852,0.0528 4.294838,0.0526 v -0.98837 c 0,-0.77227 0.14175,-0.98836 0.64829,-0.98836 0.77094,0 0.760741,0.21992 0.306411,-6.60565 -0.188042,-2.82479 -0.278691,-5.19916 -0.201461,-5.27637 0.0772,-0.0772 0.797261,0.99662 1.60007,2.3863 1.51289,2.61888 1.553001,2.78872 2.142198,9.07055 0.12022,1.2815 0.30763,2.41908 0.41649,2.52796 0.16946,0.16946 5.742413,0.71408 9.350153,0.91374 l 1.13447,0.0628 0.21254,-3.02174 c 0.11693,-1.66197 0.27962,-3.08882 0.36158,-3.1708 0.16914,-0.16914 3.05562,0.46853 3.8147,0.84275 0.97376,0.48003 3.82026,0.69583 4.97454,0.37712 1.03363,-0.28539 1.17118,-0.25438 1.17118,0.2641 0,0.3231 0.23072,0.676 0.51272,0.78422 0.63857,0.24503 6.19092,0.20788 11.26049,-0.0753 3.17033,-0.17712 3.88654,-0.31201 4.14889,-0.78132 0.33901,-0.60647 2.46555,-0.76223 4.90385,-0.35922 l 1.21553,0.20093 v 1.75052 c 0,1.11173 0.14786,1.80022 0.40517,1.88667 0.22285,0.0749 2.73897,0.2904 5.59141,0.47893 2.85243,0.18855 6.62503,0.43746 8.38358,0.55313 l 3.19733,0.21031 -0.23558,-1.07262 -0.23558,-1.07263 1.41411,0.19408 c 0.77777,0.10673 2.03077,0.29281 2.78443,0.41348 1.27018,0.20333 1.39393,0.15725 1.69355,-0.63078 l 0.32322,-0.85015 1.83411,0.81113 1.83412,0.81114 1.58242,-0.97368 c 0.87034,-0.53551 1.6512,-0.97365 1.73527,-0.97365 0.0841,0 0.36617,0.51052 0.62687,1.13448 0.543,1.29957 0.41404,1.28018 4.99178,0.75061 l 3.35017,-0.38757 -0.134,-0.91333 c -0.1489,-1.01462 -0.19946,-1.03394 2.12339,0.81231 1.12034,0.89048 1.18922,0.90233 3.1635,0.54433 2.12618,-0.38555 2.55447,-0.21537 2.56605,1.01964 0.007,0.79139 0.7566,0.87792 7.93053,0.91585 l 6.58102,0.0349 -0.29191,-1.5504 c -2.28533,-12.13819 -2.8861,-16.08874 -2.48529,-16.34292 0.23422,-0.14851 1.19619,-0.27227 2.13773,-0.27499 1.1756,-0.003 1.7672,-0.14905 1.8884,-0.46487 0.16099,-0.41956 -0.41353,-12.20952 -0.60182,-12.34964 -0.12395,-0.0922 -22.94035,-1.47001 -24.19099,-1.46072 -1.07252,0.009 -1.09191,0.0326 -0.90979,1.15474 l 0.18607,1.14659 -3.63256,-0.21716 c -3.35448,-0.20055 -3.84891,-0.1512 -6.45852,0.64479 l -2.82594,0.86196 0.18358,2.01724 c 0.101,1.10949 0.23263,2.18142 0.29261,2.38207 0.10114,0.33852 -1.12599,1.09381 -1.77719,1.09381 -0.15749,0 -0.33296,-0.32819 -0.38993,-0.72932 -0.0968,-0.68193 -0.26076,-0.72932 -2.52263,-0.72932 h -2.41907 l -0.82233,-2.22697 -0.82234,-2.22696 -2.59311,0.17569 c -15.04403,1.0193 -14.68639,0.98217 -14.49706,1.50477 0.19045,0.52563 -0.65253,-0.0631 -2.00727,-1.40176 -0.64945,-0.64178 -1.38238,-0.6342 -8.4526,0.0872 l -1.94304,0.19829 -0.27306,1.50181 c -0.25631,1.40977 -0.34583,1.51385 -1.46041,1.69818 -0.65306,0.10803 -1.74395,0.19794 -2.42421,0.1999 -0.68026,0.001 -1.48731,0.13758 -1.79343,0.30145 -0.53883,0.28838 -0.95898,0.22706 -5.03551,-0.73474 -1.47597,-0.34825 -1.58861,-0.44669 -1.66635,-1.45639 -0.0459,-0.59561 -0.22785,-1.22739 -0.40441,-1.40395 -0.21193,-0.21192 -1.84859,-0.19343 -4.81642,0.0545 -4.25974,0.35578 -4.53356,0.42088 -5.22312,1.24186 -0.40024,0.47651 -0.73306,1.01225 -0.73962,1.19054 -0.007,0.17828 -0.22017,0.5992 -0.47471,0.9354 -0.44198,0.58377 -0.48143,0.56919 -0.8773,-0.32413 -0.22796,-0.51448 -0.576653,-1.10628 -0.774853,-1.31514 -0.41757,-0.44003 -11.421304,-0.70444 -12.090996,-0.29053 -0.292629,0.18084 -0.34815,0.71051 -0.192829,1.8397 l 0.218088,1.58573 h -3.758009 c -4.18442,0 -3.871748,0.21019 -3.76256,-2.52913 0.0839,-2.10562 -0.17421,-2.25005 -4.136828,-2.31462 -4.63042,-0.0755 -5.71422,-0.3149 -5.854729,-1.2936 l -0.109892,-0.76507 -3.678389,0.21009 c -4.040321,0.23075 -5.339911,0.56556 -5.339911,1.37571 0,0.40986 -0.101,0.45005 -0.43493,0.17296 -0.43643,-0.36221 -8.562781,-1.20123 -8.850241,-0.91376 -0.0844,0.0844 -0.21385,0.63199 -0.2879,1.2171 -0.074,0.58512 -0.273245,1.20243 -0.442633,1.37184 -0.169403,0.1694 -1.741129,0.42947 -3.492731,0.57793 -1.751616,0.14847 -3.622322,0.34549 -4.157158,0.43782 -0.534836,0.0924 -2.410333,0.26735 -4.167774,0.38891 l -3.195357,0.22103 0.209271,1.65071 c 0.115059,0.9079 0.336138,2.08831 0.491223,2.62313 0.1551,0.53484 0.529843,2.13933 0.832783,3.56554 0.945144,4.44974 0.765426,4.1774 2.966144,4.49495 l 1.948406,0.28111 0.372176,2.96028 c 0.204695,1.62814 0.530848,5.36699 0.724783,8.30856 0.193935,2.94156 0.414196,5.54119 0.489487,5.77694 0.104011,0.32564 0.585048,0.37428 2.001832,0.20247 1.025743,-0.12437 2.083765,-0.33079 2.351183,-0.45866 z"
         style="fill:#000000;fill-opacity:1;stroke-width:0.32413936" />
      <path
         sodipodi:nodetypes="ccccccccccscccccsssccccccscccscccccscssccccccccccsccccssccccccccccccscccscscccsccscccccccsccccccsccssssccscccsccscccccccccccccsccccscccscccccccsscccccccsssccsscscccccccscccccccscccsccsscccccccscsccssccccccccscccccccccsccscccccscccscccssccsccccccscccsccccccccccccssccsccccccscscssssccsccscccccscccccscccccsccscsccsscccssccscccsccsccccccscscccscccsscsscccccccccssscccsccccscsssssccscccccccccccccccsscsssssccsccss"
         inkscape:connector-curvature="0"
         id="path3778"
         d="m 48.106695,209.61666 c 0.267418,-0.12783 2.710462,-0.65657 5.429005,-1.17489 l 4.94278,-0.94241 3.1e-4,-1.26576 c 3.3e-4,-1.24521 0.0115,-1.25623 0.64862,-0.67907 0.35657,0.32268 0.65051,0.89228 0.65325,1.26576 0.0101,1.43064 0.36842,1.56937 3.43776,1.33217 1.5829,-0.12238 3.38852,-0.34603 4.01249,-0.49708 0.62395,-0.15105 1.95246,-0.37157 2.95221,-0.49003 1.66525,-0.19731 1.83265,-0.15834 1.99553,0.46449 0.12769,0.48821 0.43619,0.67988 1.09444,0.67988 0.91601,0 8.25637,-1.31002 8.5231,-1.5211 0.0776,-0.0614 0.22344,-0.70894 0.32413,-1.43896 l 0.18306,-1.32732 4.29485,0.0528 4.29484,0.0526 v -0.98837 c 0,-0.77227 0.14175,-0.98836 0.64829,-0.98836 0.77094,0 0.76074,0.21992 0.30641,-6.60565 -0.18804,-2.82479 -0.27869,-5.19916 -0.20146,-5.27637 0.0772,-0.0772 0.79726,0.99662 1.60007,2.3863 1.51289,2.61888 1.553,2.78872 2.1422,9.07055 0.12022,1.2815 0.30763,2.41908 0.41649,2.52796 0.16946,0.16946 5.7424,0.71408 9.35015,0.91374 l 1.13446,0.0628 0.21254,-3.02175 c 0.11693,-1.66197 0.27962,-3.08881 0.36158,-3.17079 0.16914,-0.16914 3.05564,0.46853 3.81472,0.84274 0.97376,0.48004 3.82025,0.69584 4.97453,0.37713 1.03363,-0.28539 1.17118,-0.25439 1.17118,0.26409 0,0.32311 0.23072,0.676 0.51272,0.78422 0.63857,0.24504 6.19092,0.20788 11.26049,-0.0753 3.17033,-0.17712 3.88654,-0.31201 4.14889,-0.78132 0.33901,-0.60647 2.46555,-0.76223 4.90385,-0.35921 l 1.21553,0.20092 v 1.75053 c 0,1.11172 0.14786,1.80021 0.40517,1.88666 0.22285,0.0749 2.73897,0.2904 5.59141,0.47894 2.85243,0.18854 6.62503,0.43745 8.38358,0.55313 l 3.19733,0.2103 -0.23558,-1.07262 -0.23558,-1.07263 1.41411,0.19408 c 0.77777,0.10674 2.03077,0.29281 2.78443,0.41348 1.27018,0.20333 1.39393,0.15725 1.69355,-0.63077 l 0.32322,-0.85016 1.83411,0.81113 1.83412,0.81114 1.58242,-0.97367 c 0.87034,-0.53552 1.6512,-0.97366 1.73527,-0.97366 0.0841,0 0.36617,0.51052 0.62687,1.13449 0.543,1.29957 0.41404,1.28017 4.99178,0.7506 l 3.35017,-0.38757 -0.134,-0.91333 c -0.1489,-1.01461 -0.19946,-1.03394 2.12339,0.81231 1.12034,0.89048 1.18922,0.90233 3.1635,0.54433 2.12618,-0.38555 2.55447,-0.21537 2.56605,1.01964 0.007,0.7914 0.7566,0.87792 7.93053,0.91585 l 6.58102,0.0349 -0.29191,-1.5504 c -2.28533,-12.13819 -2.8861,-16.08874 -2.48529,-16.34292 0.23422,-0.14851 1.19619,-0.27227 2.13773,-0.27499 1.1756,-0.003 1.7672,-0.14905 1.8884,-0.46487 0.161,-0.41956 -0.41352,-12.20952 -0.60181,-12.34964 -0.12395,-0.0922 -22.94035,-1.47001 -24.19099,-1.46072 -1.07252,0.009 -1.09191,0.0326 -0.90979,1.15474 l 0.18607,1.14659 -3.63256,-0.21716 c -3.35448,-0.20055 -3.84891,-0.1512 -6.45852,0.64479 l -2.82594,0.86196 0.18358,2.01724 c 0.101,1.10949 0.23263,2.18142 0.29261,2.38207 0.10114,0.33852 -1.12599,1.09381 -1.77719,1.09381 -0.15749,0 -0.33296,-0.32819 -0.38993,-0.72932 -0.0968,-0.68193 -0.26076,-0.72932 -2.52263,-0.72932 h -2.41907 l -0.82233,-2.22697 -0.82234,-2.22696 -2.59311,0.17569 c -15.04403,1.0193 -14.68639,0.98217 -14.49706,1.50477 0.19045,0.52563 -0.65253,-0.0631 -2.00727,-1.40176 -0.64945,-0.64178 -1.38238,-0.6342 -8.4526,0.0872 l -1.94304,0.19829 -0.27306,1.50181 c -0.25631,1.40977 -0.34583,1.51385 -1.46041,1.69818 -0.65306,0.10803 -1.74395,0.19794 -2.42421,0.1999 -0.68026,0.001 -1.48731,0.13758 -1.79343,0.30145 -0.53883,0.28838 -0.95898,0.22706 -5.03551,-0.73474 -1.47597,-0.34825 -1.58861,-0.44669 -1.66635,-1.45639 -0.0459,-0.59561 -0.22784,-1.22739 -0.4044,-1.40395 -0.21193,-0.21192 -1.84859,-0.19343 -4.81642,0.0545 -4.25975,0.35578 -4.53356,0.42088 -5.22312,1.24186 -0.40024,0.47651 -0.73306,1.01225 -0.73962,1.19054 -0.007,0.17828 -0.22017,0.5992 -0.47471,0.9354 -0.44198,0.58377 -0.48143,0.56919 -0.8773,-0.32413 -0.22796,-0.51448 -0.57666,-1.10628 -0.77486,-1.31514 -0.41758,-0.44003 -11.42131,-0.70444 -12.091,-0.29053 -0.29263,0.18084 -0.34815,0.71051 -0.19283,1.8397 l 0.21809,1.58573 h -3.75801 c -4.18442,0 -3.87175,0.21019 -3.76256,-2.52913 0.0839,-2.10562 -0.17421,-2.25005 -4.13683,-2.31462 -4.63042,-0.0755 -5.71422,-0.3149 -5.85473,-1.2936 l -0.10989,-0.76507 -3.67839,0.21009 c -4.04032,0.23075 -5.33991,0.56556 -5.33991,1.37571 0,0.40986 -0.101,0.45005 -0.43493,0.17296 -0.43643,-0.36221 -8.56278,-1.20123 -8.85024,-0.91376 -0.0844,0.0844 -0.21385,0.63199 -0.2879,1.2171 -0.074,0.58512 -0.273245,1.20243 -0.442633,1.37184 -0.169403,0.1694 -1.741129,0.42947 -3.492731,0.57793 -1.751616,0.14847 -3.622322,0.34549 -4.157158,0.43782 -0.534836,0.0924 -2.410333,0.26735 -4.167774,0.38891 l -3.195357,0.22103 0.209271,1.65071 c 0.115059,0.9079 0.336138,2.08831 0.491223,2.62313 0.1551,0.53484 0.529843,2.13933 0.832783,3.56554 0.945144,4.44974 0.765426,4.1774 2.966144,4.49495 l 1.948406,0.28111 0.372176,2.96028 c 0.204695,1.62814 0.530848,5.36699 0.724783,8.30856 0.193935,2.94156 0.414196,5.54119 0.489487,5.77695 0.104011,0.32563 0.585048,0.37428 2.001832,0.20247 1.025743,-0.12438 2.083765,-0.3308 2.351183,-0.45867 z m -1.086442,-5.60179 c -0.102434,-0.5794 -0.418673,-3.31434 -0.702833,-6.07761 -0.284175,-2.7633 -0.617744,-5.82641 -0.741296,-6.80693 l -0.224622,-1.78276 -1.782763,-0.16207 -1.782762,-0.16208 -0.426219,-3.03127 c -0.234406,-1.6672 -0.350541,-3.10694 -0.258064,-3.19942 0.485929,-0.48591 11.070816,-1.63712 11.950166,-1.29967 0.37898,0.14541 0.58438,0.83017 0.74843,2.49499 0.23542,2.38913 0.7892,3.46497 0.7892,1.53322 0,-1.96126 0.63788,-4.58833 1.21906,-5.02057 0.33476,-0.24897 1.22194,-0.38061 2.1844,-0.32415 l 1.62069,0.0951 0.56422,1.76152 c 0.31033,0.96883 0.94035,3.59436 1.40007,5.83451 0.98138,4.78228 2.93792,11.70852 3.43915,12.1747 0.25014,0.23268 0.28736,-0.32322 0.13012,-1.94306 -0.12123,-1.24793 -0.434,-4.60278 -0.69512,-7.45521 -0.26113,-2.85242 -0.56728,-6.18486 -0.68035,-7.4054 -0.24452,-2.63982 -0.10559,-2.79287 2.54135,-2.80002 2.85646,-0.007 2.86207,-0.001 2.86715,3.028 0.004,2.64839 0.21777,4.1022 0.60063,4.09335 0.11291,-0.003 0.77161,-1.42476 1.46375,-3.16036 0.69215,-1.73559 1.40286,-3.33794 1.57935,-3.56079 0.36464,-0.4604 3.09041,-0.54119 3.76854,-0.11175 0.36506,0.23122 0.14074,1.21728 -1.21553,5.34322 -0.91476,2.78282 -1.6632,5.47145 -1.6632,5.97471 0,1.04959 2.72978,6.86453 3.2225,6.86453 0.36641,0 0.11549,-1.74068 -0.39384,-2.73305 -0.48692,-0.94856 -1.18341,-4.08849 -1.19642,-5.39373 -0.006,-0.63676 0.21848,-1.83288 0.49964,-2.65802 0.58422,-1.7146 0.12812,-1.57531 7.10609,-2.17 5.26249,-0.4485 5.59103,-0.40318 5.79653,0.79958 0.53421,3.12684 1.27354,12.83199 0.99842,13.10638 -0.2666,0.2659 -4.78938,0.97207 -9.83149,1.53507 -1.41207,0.15767 -1.41538,0.1611 -1.2339,1.27933 l 0.18194,1.12125 -2.78327,-0.0934 -2.78327,-0.0934 -1.0572,-2.74491 c -1.44333,-3.74747 -1.84738,-3.76094 -1.73014,-0.0577 0.0512,1.61842 0.0274,3.00716 -0.0529,3.08611 -0.0803,0.0789 -2.03923,0.18872 -4.35306,0.24397 l -4.20695,0.10043 -0.49308,-1.39373 c -0.61273,-1.73199 -1.02954,-1.96204 -3.1715,-1.75046 -1.52389,0.15053 -1.72411,0.25921 -1.87574,1.01824 -0.47429,2.37438 -0.5515,2.46448 -2.20304,2.57026 -0.8646,0.0554 -1.76229,-0.0691 -2.01589,-0.27962 -0.35842,-0.29746 -0.50053,-0.2665 -0.65779,0.14333 -0.15505,0.40409 -0.662629,0.52271 -2.236722,0.52271 h -2.036164 z m 5.119087,-2.91725 c 0.0855,-0.40113 0.46427,-2.69847 0.84185,-5.1052 0.3776,-2.40674 0.8206,-5.16636 0.98448,-6.1325 0.16387,-0.96613 0.26188,-1.7865 0.21778,-1.82306 -0.17049,-0.14131 -3.485728,0.3944 -3.687109,0.59577 -0.19613,0.19613 0.285782,7.65316 0.745329,11.53325 0.20557,1.73583 0.63213,2.17856 0.89767,0.93174 z m 35.10718,-1.18306 c 0.48333,-0.0387 0.55036,-2.54246 0.0877,-3.27386 -0.24616,-0.38912 -0.38005,-0.27846 -0.67041,0.55401 -0.37074,1.06294 -0.58803,1.19088 -2.59335,1.52703 -1.85573,0.31108 -2.40567,-0.32328 -2.41091,-2.78102 l -0.004,-2.05521 1.43378,-0.10243 c 1.04263,-0.0745 1.51127,0.036 1.71783,0.40518 0.48619,0.86875 1.22427,0.60125 1.22427,-0.44373 0,-2.22069 -1.20347,-3.41912 -1.62456,-1.61777 -0.14531,0.62162 -0.41876,0.80404 -1.30549,0.87092 -1.55307,0.11707 -1.95486,-0.24507 -2.29592,-2.06972 -0.36329,-1.94356 0.075,-2.39077 2.34364,-2.39077 1.29675,0 1.63175,0.13673 2.18393,0.89139 0.57337,0.78362 0.6789,0.82251 0.873,0.32171 0.12137,-0.31334 0.12782,-1.06513 0.0143,-1.67066 l -0.20653,-1.10096 -3.31357,0.14692 c -1.82247,0.0808 -3.78718,0.21921 -4.36601,0.30756 l -1.05245,0.16062 0.64268,0.87688 c 0.41641,0.56818 0.87251,2.22907 1.29554,4.71775 0.74886,4.40552 0.80781,5.76081 0.27379,6.29482 -0.82997,0.82997 1.30168,0.94856 7.75326,0.43133 z m -28.48534,-4.43351 c 0.1856,-0.16508 -0.25518,-2.18634 -0.59332,-2.72063 -0.43089,-0.68093 -0.58844,-0.38895 -0.84867,1.57278 -0.22788,1.71778 -0.22324,1.73046 0.54611,1.49353 0.42676,-0.13142 0.8299,-0.28699 0.89588,-0.34568 z m 39.74134,6.60438 c -0.096,-0.25029 -0.2875,-2.36638 -0.42546,-4.7024 -0.22271,-3.77139 -0.34314,-4.3869 -1.07465,-5.49311 -0.45309,-0.68519 -1.3596,-2.22126 -2.01443,-3.4135 -0.65484,-1.19223 -1.83882,-3.15447 -2.63108,-4.36053 -0.79227,-1.20606 -1.37895,-2.25436 -1.30376,-2.32955 0.0752,-0.0752 1.55155,-0.1933 3.2808,-0.26245 2.60076,-0.10402 3.24732,-0.0323 3.7413,0.41469 0.32846,0.29726 0.59858,0.70018 0.60028,0.8954 10e-4,0.19521 0.59418,1.28671 1.31662,2.42557 1.54631,2.43754 1.53776,2.44096 3.38032,-1.34876 l 1.29654,-2.66672 2.59313,-0.17505 c 1.42622,-0.0963 2.64451,-0.14218 2.70732,-0.10186 0.0628,0.0402 -0.21779,0.73789 -0.62356,1.55036 -0.40576,0.81247 -0.66774,1.54721 -0.58218,1.63277 0.0857,0.0857 0.72323,-0.001 1.41704,-0.19273 1.93794,-0.53509 5.36358,-0.23633 6.46161,0.56354 0.79059,0.5759 1.13923,0.63009 2.48274,0.3859 0.85964,-0.15625 2.91803,-0.24207 4.57419,-0.19071 l 3.0112,0.0934 0.4613,2.51208 c 0.25369,1.38164 0.58189,2.51208 0.7293,2.51208 0.36535,0 0.3348,-3.2969 -0.0524,-5.66177 -0.17419,-1.06379 -0.1971,-2.0538 -0.0509,-2.19999 0.47737,-0.47736 5.76715,-0.69198 6.7742,-0.27485 1.99985,0.82837 2.66824,3.61553 1.37057,5.7152 l -0.71905,1.16346 0.74723,0.79541 c 0.58376,0.62138 0.84108,1.47947 1.17604,3.92202 0.23582,1.71963 0.5803,3.30916 0.76548,3.53231 0.41721,0.50271 0.17252,0.65434 -1.50302,0.93134 -1.7315,0.28626 -1.98324,-0.0519 -2.41827,-3.24877 -0.52519,-3.85935 -0.57827,-4.02607 -1.28192,-4.02607 -0.54104,0 -0.60343,0.15285 -0.42551,1.04247 0.11463,0.57337 0.22042,2.28286 0.235,3.79888 l 0.0265,2.75639 -1.28384,0.21294 c -0.75143,0.12467 -1.51906,0.0661 -1.85103,-0.14131 -0.41859,-0.26141 -1.52397,-0.21404 -4.21884,0.18081 -2.26018,0.33116 -3.78895,0.42107 -4.01201,0.23595 -0.1982,-0.16449 -0.6195,-1.21247 -0.93621,-2.32883 -0.3167,-1.11637 -0.64318,-2.24855 -0.72551,-2.51596 -0.0968,-0.31464 -0.37268,-0.0287 -0.78158,0.81036 -0.79402,1.62928 -1.64477,2.29312 -3.6945,2.88284 -2.0243,0.58243 -4.16742,0.2855 -5.60368,-0.77637 -1.43286,-1.05934 -2.6619,-3.62393 -2.6619,-5.55446 0,-0.84585 -0.13414,-1.62083 -0.29813,-1.72218 -0.16398,-0.10128 -0.76131,0.65582 -1.32741,1.6826 l -1.02927,1.86686 0.16193,4.44492 c 0.18527,5.08621 0.49376,4.61614 -3.25822,4.96453 -1.86503,0.17316 -2.38354,0.12439 -2.52229,-0.23712 z m 27.97896,-7.36471 c 0.85344,-0.89364 0.97384,-1.17024 0.60038,-1.37924 -0.37847,-0.21181 -0.95184,-3.36334 -0.91771,-5.0441 0.0115,-0.59805 -0.7528,-1.05672 -1.76232,-1.05672 -1.17397,0 -1.38865,0.4346 -0.62921,1.27378 0.26384,0.29153 0.56283,1.58729 0.68994,2.99012 0.20828,2.2984 0.17593,2.50153 -0.45199,2.83758 -0.91441,0.48939 -1.26055,-0.20195 -1.5438,-3.08357 -0.2962,-3.01318 -0.51712,-3.36964 -2.0884,-3.36964 -0.92627,0 -1.28514,0.13572 -1.28514,0.48622 0,0.2674 0.20319,0.4862 0.45152,0.4862 0.59314,0 0.72761,0.40509 1.20112,3.61811 0.21905,1.48643 0.544,2.892 0.72208,3.12348 0.21421,0.2784 0.9369,0.38952 2.13491,0.32823 1.58368,-0.0811 1.94511,-0.23299 2.87862,-1.21045 z m -12.07633,-1.22066 c 0.23938,-0.48217 0.26225,-1.57297 0.0713,-3.40346 -0.30688,-2.9425 -0.82996,-3.90692 -1.79112,-3.30233 -0.4528,0.28481 -0.57915,0.92503 -0.65434,3.31555 -0.0544,1.72977 0.0558,3.2411 0.26504,3.63191 0.45727,0.85443 1.63166,0.71986 2.10906,-0.24167 z m 18.56443,-7.76513 c -0.13759,-2.1597 -0.48487,-2.85117 -1.27915,-2.54638 -0.40887,0.15689 -0.42157,0.51607 -0.0891,2.52269 0.2132,1.28688 0.40335,2.37166 0.42256,2.41062 0.0192,0.039 0.26934,-0.0191 0.55584,-0.12897 0.42316,-0.16239 0.49632,-0.58608 0.38987,-2.2579 z m 55.90166,16.15655 c -0.42879,-0.27591 -0.82367,-2.01914 -3.31874,-14.65082 l -0.54421,-2.75519 h -2.05442 -2.05439 l 0.0713,2.44399 c 0.0597,2.04476 -0.0377,2.5826 -0.5961,3.29252 -0.36709,0.46669 -0.66745,1.02524 -0.66745,1.24122 0,0.7068 2.35616,4.2904 3.64012,5.53645 0.82722,0.80279 1.31975,1.61315 1.44333,2.37468 0.18698,1.1522 0.18358,1.15604 -1.02134,1.15604 -2.40226,0 -4.04548,-1.31274 -5.68039,-4.53795 -1.4195,-2.80022 -2.59796,-4.25921 -3.35336,-4.15158 -0.46618,0.0664 -0.68947,0.31685 -0.66696,0.74812 0.029,0.55603 0.73781,4.21509 1.27144,6.56382 0.15967,0.70279 0.0829,0.7293 -2.10945,0.7293 -2.21074,0 -2.27516,-0.023 -2.27516,-0.81034 0,-0.90341 -0.50709,-1.03135 -1.46754,-0.37026 -1.26446,0.87035 -3.08552,1.25341 -4.88803,1.02822 -1.4464,-0.18073 -1.96674,-0.42921 -2.89042,-1.38028 -0.99227,-1.02171 -1.12647,-1.36037 -1.12647,-2.84269 0,-2.04928 0.44348,-2.52842 3.2961,-3.56134 2.27387,-0.82334 2.89785,-1.45003 2.23683,-2.24652 -0.57861,-0.69717 -1.8957,-0.6453 -3.42602,0.13486 -0.69936,0.35655 -1.38659,0.64828 -1.52715,0.64828 -0.35135,0 -0.32184,-1.72846 0.0461,-2.69594 0.52545,-1.38206 4.60841,-2.35959 6.23023,-1.49161 0.36011,0.19271 0.74342,0.26172 0.85181,0.15332 0.10846,-0.10846 -0.12281,-1.41708 -0.51396,-2.90816 -1.10563,-4.2155 -1.09002,-4.27054 1.28134,-4.51839 4.8224,-0.50403 6.96436,-0.11692 9.00129,1.62658 0.69553,0.59533 1.35811,1.08244 1.47241,1.08244 0.11434,0 0.16404,-0.69285 0.11061,-1.53967 l -0.0973,-1.53966 7.87378,-0.0868 c 4.33059,-0.0478 8.33459,0.0326 8.89779,0.17851 0.96474,0.24999 1.04772,0.39385 1.43387,2.48614 0.22544,1.22144 0.33344,2.34447 0.24003,2.49564 -0.0934,0.15115 -0.78518,0.27483 -1.53724,0.27483 -0.75205,0 -1.69155,0.22706 -2.08777,0.50458 -0.97936,0.68596 -0.93976,1.90578 0.29398,9.05752 1.39275,8.0735 1.36533,7.83471 0.93022,8.10364 -0.55201,0.34116 -6.24233,0.53297 -6.71865,0.22647 z m -22.46184,-5.57492 c 0.49174,0 0.64031,-0.97735 0.27158,-1.78661 -0.42952,-0.94269 -0.62004,-0.97398 -1.90021,-0.31198 -1.15448,0.59702 -1.27096,1.66874 -0.227,2.08876 0.40113,0.16138 0.92357,0.22962 1.161,0.15163 0.23742,-0.0781 0.55,-0.14174 0.69463,-0.14174 z m 8.93476,-9.20721 c 0.59839,-0.43757 0.60103,-0.50122 0.0671,-1.62071 -0.50547,-1.05996 -0.67671,-1.16524 -1.89528,-1.16524 -1.23103,0 -1.32377,0.0591 -1.14416,0.72931 0.10745,0.40113 0.19745,0.98928 0.19987,1.30701 0.003,0.31773 0.33262,0.7096 0.73374,0.87084 1.02941,0.41377 1.33156,0.39579 2.03863,-0.12123 z m -29.67151,13.76415 -3.07933,-0.18106 -0.0911,-4.19281 c -0.0501,-2.30605 -0.23867,-4.37053 -0.41894,-4.58775 -0.4642,-0.55932 -0.34762,-9.78992 0.12739,-10.08346 0.20084,-0.1241 1.02549,-0.25347 1.83258,-0.28746 0.80709,-0.034 2.19674,-0.2126 3.08813,-0.39691 0.89139,-0.18431 2.49587,-0.37509 3.56554,-0.42395 l 1.94483,-0.0888 0.26762,1.4409 c 0.14719,0.79249 0.3228,1.73262 0.39022,2.08916 0.11334,0.59913 0.33884,0.64077 2.97378,0.54908 3.36932,-0.11721 4.01236,0.18989 3.75671,1.79424 -0.15822,0.99284 -0.20207,1.02206 -0.85141,0.56725 -1.04299,-0.73054 -2.1217,-0.61317 -2.29593,0.2498 -0.29571,1.46466 -0.42312,3.00811 -0.28094,3.40347 0.23177,0.64444 1.06411,0.46925 1.06411,-0.22398 0,-0.74455 0.58056,-1.18893 1.0023,-0.76719 0.46561,0.46563 -0.036,4.31359 -0.56227,4.31359 -0.24202,0 -0.44003,-0.14586 -0.44003,-0.32414 0,-0.17827 -0.2188,-0.32413 -0.4862,-0.32413 -0.38257,0 -0.48622,0.45132 -0.48622,2.11707 0,2.42193 0.35076,2.77848 1.94898,1.98118 0.90485,-0.4514 1.02012,-0.45062 1.19611,0.009 0.10717,0.27915 0.0592,0.8916 -0.10616,1.361 -0.29098,0.82512 -0.39146,0.85489 -3.02645,0.89686 -2.45872,0.0392 -2.75031,0.11046 -2.97921,0.72931 -0.27838,0.7525 -1.08403,0.79059 -8.05399,0.38076 z m 1.94484,-2.596 c 0,-0.16941 -0.24779,-0.4467 -0.55064,-0.61619 -0.85989,-0.48121 -0.83303,-6.18517 0.0337,-7.14422 0.6938,-0.76775 1.56728,-0.88516 2.06925,-0.27815 0.18428,0.22286 0.36213,1.71795 0.39523,3.32243 0.0826,4.00728 0.0875,3.97947 -0.72662,4.23785 l -0.72399,0.22977 0.71857,0.26582 c 0.90341,0.3342 3.97054,0.22235 3.97068,-0.1448 7e-5,-0.1504 -0.27651,-0.3458 -0.61463,-0.43421 -0.54251,-0.14189 -0.63642,-0.58577 -0.7993,-3.77829 -0.10157,-1.98963 -0.183,-3.90643 -0.18109,-4.25954 0.007,-1.37154 -2.12896,-1.93391 -3.55424,-0.93561 -1.0963,0.76788 -1.36874,0.14494 -1.27167,-2.90756 0.0977,-3.0702 -0.31233,-3.55138 -1.94033,-2.27729 -1.19503,0.93526 -1.32321,1.41417 -0.3785,1.41417 0.64375,0 0.65799,0.151 0.57258,6.07227 -0.0765,5.29911 -0.16048,6.14519 -0.66015,6.64486 -0.31492,0.31492 -0.57258,0.64551 -0.57258,0.73465 0,0.0891 0.9481,0.16208 2.1069,0.16208 1.1588,0 2.10691,-0.13859 2.10691,-0.30804 z m -50.85661,-3.33853 c -0.15116,-0.40113 -0.37901,-1.23984 -0.50633,-1.86381 -0.21437,-1.05044 -0.19655,-1.08647 0.24056,-0.4862 0.40901,0.56167 0.93685,3.07931 0.64559,3.07931 -0.0578,0 -0.22867,-0.32819 -0.37982,-0.7293 z"
         style="fill:#666666;fill-opacity:1;stroke-width:0.32413936" />
      <path
         sodipodi:nodetypes="ccccccscsccssccccccccsccccccscscssssccscscccccccsscsssssccsccs"
         inkscape:connector-curvature="0"
         id="path3778-6"
         d="m 87.246523,199.91457 c 0.483327,-0.0387 0.550359,-2.54247 0.0877,-3.27387 -0.24616,-0.38912 -0.38005,-0.27846 -0.670409,0.55401 -0.370739,1.06294 -0.588031,1.19088 -2.59335,1.52703 -1.85573,0.31108 -2.405671,-0.32328 -2.41091,-2.78102 l -0.004,-2.05521 1.433779,-0.10243 c 1.042631,-0.0745 1.511271,0.036 1.717832,0.40518 0.48619,0.86875 1.224269,0.60125 1.224269,-0.44373 0,-2.22069 -1.203471,-3.41912 -1.62456,-1.61777 -0.145309,0.62162 -0.418759,0.80404 -1.305491,0.87092 -1.55307,0.11707 -1.954859,-0.24507 -2.29592,-2.06972 -0.363288,-1.94356 0.075,-2.39077 2.34364,-2.39077 1.296752,0 1.631751,0.13673 2.183931,0.89139 0.573371,0.78362 0.6789,0.82251 0.873001,0.32171 0.12137,-0.31334 0.127818,-1.06513 0.01429,-1.67066 l -0.206529,-1.10096 -3.31357,0.14692 c -1.822471,0.0808 -3.78718,0.21921 -4.366011,0.30756 l -1.052449,0.16062 0.642678,0.87688 c 0.416412,0.56818 0.872511,2.22907 1.29554,4.71775 0.748861,4.40552 0.80781,5.76081 0.273791,6.29482 -0.829969,0.82997 1.301681,0.94856 7.75326,0.43133 z m 39.234957,-5.19385 c 0.85344,-0.89364 0.97384,-1.17024 0.60038,-1.37924 -0.37847,-0.21181 -0.95184,-3.36334 -0.91771,-5.0441 0.0115,-0.59805 -0.7528,-1.05672 -1.76232,-1.05672 -1.17397,0 -1.38865,0.4346 -0.62921,1.27378 0.26384,0.29153 0.56283,1.58729 0.68994,2.99012 0.20828,2.2984 0.17593,2.50153 -0.45199,2.83758 -0.91441,0.48939 -1.26055,-0.20195 -1.5438,-3.08357 -0.2962,-3.01318 -0.51712,-3.36964 -2.0884,-3.36964 -0.92627,0 -1.28514,0.13572 -1.28514,0.48622 0,0.2674 0.20319,0.4862 0.45152,0.4862 0.59314,0 0.72761,0.40509 1.20112,3.61811 0.21905,1.48643 0.544,2.892 0.72208,3.12348 0.21421,0.2784 0.9369,0.38952 2.13491,0.32823 1.58368,-0.0811 1.94511,-0.23299 2.87862,-1.21045 z m 21.13601,3.55678 c 0,-0.16941 -0.24779,-0.4467 -0.55064,-0.61619 -0.85989,-0.48121 -0.83303,-6.18517 0.0337,-7.14422 0.6938,-0.76775 1.56728,-0.88516 2.06925,-0.27815 0.18428,0.22286 0.36213,1.71795 0.39523,3.32243 0.0826,4.00728 0.0875,3.97947 -0.72662,4.23785 l -0.72399,0.22977 0.71857,0.26582 c 0.90341,0.3342 3.97054,0.22235 3.97068,-0.1448 7e-5,-0.1504 -0.27651,-0.3458 -0.61463,-0.43421 -0.54251,-0.14189 -0.63642,-0.58577 -0.7993,-3.77829 -0.10157,-1.98963 -0.183,-3.90643 -0.18109,-4.25954 0.007,-1.37154 -2.12896,-1.93391 -3.55424,-0.93561 -1.0963,0.76788 -1.36874,0.14494 -1.27167,-2.90756 0.0977,-3.0702 -0.31233,-3.55138 -1.94033,-2.27729 -1.19503,0.93526 -1.32321,1.41417 -0.3785,1.41417 0.64375,0 0.65799,0.151 0.57258,6.07227 -0.0765,5.29911 -0.16048,6.14519 -0.66015,6.64486 -0.31492,0.31492 -0.57258,0.64551 -0.57258,0.73465 0,0.0891 0.9481,0.16208 2.1069,0.16208 1.1588,0 2.10691,-0.13859 2.10691,-0.30804 z"
         style="fill:#ff0000;fill-opacity:1;stroke-width:0.32413936" />
    </g>
  </g>
</svg>
